Serial/Vivado/Serial_bus/Serial_bus.sim/sim_1/behav/xsim/master2_slave3_tb.vcd
$date
   Tue Oct 14 18:17:23 2025
$end
$version
  2022.2
$end
$timescale
  1ps
$end
$scope module master2_slave3_tb $end
$var reg 1 ! clk $end
$var reg 1 " rstn $end
$var reg 8 # d1_wdata [7:0] $end
$var wire 8 $ d1_rdata [7:0] $end
$var reg 16 % d1_addr [15:0] $end
$var reg 1 & d1_valid $end
$var wire 1 ' d1_ready $end
$var reg 1 ( d1_mode $end
$var reg 8 ) d2_wdata [7:0] $end
$var wire 8 * d2_rdata [7:0] $end
$var reg 16 + d2_addr [15:0] $end
$var reg 1 , d2_valid $end
$var wire 1 - d2_ready $end
$var reg 1 . d2_mode $end
$var wire 1 / m1_rdata $end
$var wire 1 0 m1_wdata $end
$var wire 1 1 m1_mode $end
$var wire 1 2 m1_mvalid $end
$var wire 1 3 m1_svalid $end
$var wire 1 4 m1_breq $end
$var wire 1 5 m1_bgrant $end
$var wire 1 6 m1_ack $end
$var wire 1 7 m1_split $end
$var wire 1 8 m2_rdata $end
$var wire 1 9 m2_wdata $end
$var wire 1 : m2_mode $end
$var wire 1 ; m2_mvalid $end
$var wire 1 < m2_svalid $end
$var wire 1 = m2_breq $end
$var wire 1 > m2_bgrant $end
$var wire 1 ? m2_ack $end
$var wire 1 @ m2_split $end
$var wire 1 A s1_rdata $end
$var wire 1 B s1_wdata $end
$var wire 1 C s1_mode $end
$var wire 1 D s1_mvalid $end
$var wire 1 E s1_svalid $end
$var wire 1 F s1_ready $end
$var wire 1 G s2_rdata $end
$var wire 1 H s2_wdata $end
$var wire 1 I s2_mode $end
$var wire 1 J s2_mvalid $end
$var wire 1 K s2_svalid $end
$var wire 1 L s2_ready $end
$var wire 1 M s3_rdata $end
$var wire 1 N s3_wdata $end
$var wire 1 O s3_mode $end
$var wire 1 P s3_mvalid $end
$var wire 1 Q s3_svalid $end
$var wire 1 R s3_ready $end
$var wire 1 S s3_split $end
$var wire 1 T split_grant $end
$var integer 32 U i [31:0] $end
$var reg 16 V rand_addr1 [15:0] $end
$var reg 16 W rand_addr2 [15:0] $end
$var reg 16 X rand_addr3 [15:0] $end
$var reg 8 Y rand_data1 [7:0] $end
$var reg 8 Z rand_data2 [7:0] $end
$var reg 8 [ slave_mem_data1 [7:0] $end
$var reg 8 \ slave_mem_data2 [7:0] $end
$var reg 2 ] slave_id1 [1:0] $end
$var reg 2 ^ slave_id2 [1:0] $end
$var reg 1 _ m1_accepted $end
$var reg 1 ` m2_accepted $end
$var reg 8 a d1_rdata_before [7:0] $end
$var reg 8 b d2_rdata_before [7:0] $end
$var wire 1 c s_ready $end
$scope module master1 $end
$var wire 1 d clk $end
$var wire 1 e rstn $end
$var wire 8 f dwdata [7:0] $end
$var wire 8 $ drdata [7:0] $end
$var wire 16 g daddr [15:0] $end
$var wire 1 h dvalid $end
$var wire 1 ' dready $end
$var wire 1 i dmode $end
$var wire 1 / mrdata $end
$var reg 1 j mwdata $end
$var wire 1 1 mmode $end
$var reg 1 k mvalid $end
$var wire 1 3 svalid $end
$var wire 1 4 mbreq $end
$var wire 1 5 mbgrant $end
$var wire 1 7 msplit $end
$var wire 1 6 ack $end
$var reg 8 l wdata [7:0] $end
$var reg 16 m addr [15:0] $end
$var reg 1 n mode $end
$var reg 8 o rdata [7:0] $end
$var reg 8 p counter [7:0] $end
$var reg 8 q timeout [7:0] $end
$var reg 3 r state [2:0] $end
$var reg 3 s next_state [2:0] $end
$var reg 3 t prev_state [2:0] $end
$upscope $end
$scope module master2 $end
$var wire 1 u clk $end
$var wire 1 v rstn $end
$var wire 8 w dwdata [7:0] $end
$var wire 8 * drdata [7:0] $end
$var wire 16 x daddr [15:0] $end
$var wire 1 y dvalid $end
$var wire 1 - dready $end
$var wire 1 z dmode $end
$var wire 1 8 mrdata $end
$var reg 1 { mwdata $end
$var wire 1 : mmode $end
$var reg 1 | mvalid $end
$var wire 1 < svalid $end
$var wire 1 = mbreq $end
$var wire 1 > mbgrant $end
$var wire 1 @ msplit $end
$var wire 1 ? ack $end
$var reg 8 } wdata [7:0] $end
$var reg 16 ~ addr [15:0] $end
$var reg 1 !! mode $end
$var reg 8 "! rdata [7:0] $end
$var reg 8 #! counter [7:0] $end
$var reg 8 $! timeout [7:0] $end
$var reg 3 %! state [2:0] $end
$var reg 3 &! next_state [2:0] $end
$var reg 3 '! prev_state [2:0] $end
$upscope $end
$scope module slave1 $end
$var wire 1 (! clk $end
$var wire 1 )! rstn $end
$var wire 1 B swdata $end
$var wire 1 A srdata $end
$var wire 1 C smode $end
$var wire 1 D mvalid $end
$var wire 1 *! split_grant $end
$var wire 1 E svalid $end
$var wire 1 F sready $end
$var wire 1 +! ssplit $end
$var wire 8 ,! smemrdata [7:0] $end
$var wire 1 -! smemwen $end
$var wire 1 .! smemren $end
$var wire 11 /! smemaddr [10:0] $end
$var wire 8 0! smemwdata [7:0] $end
$var wire 1 1! rvalid $end
$scope module sp $end
$var wire 1 (! clk $end
$var wire 1 )! rstn $end
$var wire 8 ,! smemrdata [7:0] $end
$var wire 1 1! rvalid $end
$var reg 1 2! smemwen $end
$var reg 1 3! smemren $end
$var reg 11 4! smemaddr [10:0] $end
$var reg 8 5! smemwdata [7:0] $end
$var wire 1 B swdata $end
$var reg 1 6! srdata $end
$var wire 1 C smode $end
$var wire 1 D mvalid $end
$var wire 1 *! split_grant $end
$var reg 1 7! svalid $end
$var wire 1 F sready $end
$var wire 1 +! ssplit $end
$var reg 8 8! wdata [7:0] $end
$var reg 11 9! addr [10:0] $end
$var wire 8 :! rdata [7:0] $end
$var reg 1 ;! mode $end
$var reg 8 <! counter [7:0] $end
$var reg 4 =! rcounter [3:0] $end
$var reg 3 >! state [2:0] $end
$var reg 3 ?! next_state [2:0] $end
$var reg 3 @! prev_state [2:0] $end
$upscope $end
$scope module sm $end
$var wire 1 (! clk $end
$var wire 1 )! rstn $end
$var wire 1 -! wen $end
$var wire 1 .! ren $end
$var wire 11 /! addr [10:0] $end
$var wire 8 0! wdata [7:0] $end
$var reg 8 A! rdata [7:0] $end
$var reg 1 B! rvalid $end
$var reg 1 C! ren_prev $end
$var integer 32 D! i [31:0] $end
$upscope $end
$upscope $end
$scope module slave2 $end
$var wire 1 E! clk $end
$var wire 1 F! rstn $end
$var wire 1 H swdata $end
$var wire 1 G srdata $end
$var wire 1 I smode $end
$var wire 1 J mvalid $end
$var wire 1 G! split_grant $end
$var wire 1 K svalid $end
$var wire 1 L sready $end
$var wire 1 H! ssplit $end
$var wire 8 I! smemrdata [7:0] $end
$var wire 1 J! smemwen $end
$var wire 1 K! smemren $end
$var wire 12 L! smemaddr [11:0] $end
$var wire 8 M! smemwdata [7:0] $end
$var wire 1 N! rvalid $end
$scope module sp $end
$var wire 1 E! clk $end
$var wire 1 F! rstn $end
$var wire 8 I! smemrdata [7:0] $end
$var wire 1 N! rvalid $end
$var reg 1 O! smemwen $end
$var reg 1 P! smemren $end
$var reg 12 Q! smemaddr [11:0] $end
$var reg 8 R! smemwdata [7:0] $end
$var wire 1 H swdata $end
$var reg 1 S! srdata $end
$var wire 1 I smode $end
$var wire 1 J mvalid $end
$var wire 1 G! split_grant $end
$var reg 1 T! svalid $end
$var wire 1 L sready $end
$var wire 1 H! ssplit $end
$var reg 8 U! wdata [7:0] $end
$var reg 12 V! addr [11:0] $end
$var wire 8 W! rdata [7:0] $end
$var reg 1 X! mode $end
$var reg 8 Y! counter [7:0] $end
$var reg 4 Z! rcounter [3:0] $end
$var reg 3 [! state [2:0] $end
$var reg 3 \! next_state [2:0] $end
$var reg 3 ]! prev_state [2:0] $end
$upscope $end
$scope module sm $end
$var wire 1 E! clk $end
$var wire 1 F! rstn $end
$var wire 1 J! wen $end
$var wire 1 K! ren $end
$var wire 12 L! addr [11:0] $end
$var wire 8 M! wdata [7:0] $end
$var reg 8 ^! rdata [7:0] $end
$var reg 1 _! rvalid $end
$var reg 1 `! ren_prev $end
$var integer 32 a! i [31:0] $end
$upscope $end
$upscope $end
$scope module slave3 $end
$var wire 1 b! clk $end
$var wire 1 c! rstn $end
$var wire 1 N swdata $end
$var wire 1 M srdata $end
$var wire 1 O smode $end
$var wire 1 P mvalid $end
$var wire 1 T split_grant $end
$var wire 1 Q svalid $end
$var wire 1 R sready $end
$var wire 1 S ssplit $end
$var wire 8 d! smemrdata [7:0] $end
$var wire 1 e! smemwen $end
$var wire 1 f! smemren $end
$var wire 12 g! smemaddr [11:0] $end
$var wire 8 h! smemwdata [7:0] $end
$var wire 1 i! rvalid $end
$scope module sp $end
$var wire 1 b! clk $end
$var wire 1 c! rstn $end
$var wire 8 d! smemrdata [7:0] $end
$var wire 1 i! rvalid $end
$var reg 1 j! smemwen $end
$var reg 1 k! smemren $end
$var reg 12 l! smemaddr [11:0] $end
$var reg 8 m! smemwdata [7:0] $end
$var wire 1 N swdata $end
$var reg 1 n! srdata $end
$var wire 1 O smode $end
$var wire 1 P mvalid $end
$var wire 1 T split_grant $end
$var reg 1 o! svalid $end
$var wire 1 R sready $end
$var wire 1 S ssplit $end
$var reg 8 p! wdata [7:0] $end
$var reg 12 q! addr [11:0] $end
$var wire 8 r! rdata [7:0] $end
$var reg 1 s! mode $end
$var reg 8 t! counter [7:0] $end
$var reg 4 u! rcounter [3:0] $end
$var reg 3 v! state [2:0] $end
$var reg 3 w! next_state [2:0] $end
$var reg 3 x! prev_state [2:0] $end
$upscope $end
$scope module sm $end
$var wire 1 b! clk $end
$var wire 1 c! rstn $end
$var wire 1 e! wen $end
$var wire 1 f! ren $end
$var wire 12 g! addr [11:0] $end
$var wire 8 h! wdata [7:0] $end
$var reg 8 y! rdata [7:0] $end
$var reg 1 z! rvalid $end
$var reg 1 {! ren_prev $end
$var integer 32 |! i [31:0] $end
$upscope $end
$upscope $end
$scope module bus $end
$var wire 1 }! clk $end
$var wire 1 ~! rstn $end
$var wire 1 / m1_rdata $end
$var wire 1 0 m1_wdata $end
$var wire 1 1 m1_mode $end
$var wire 1 2 m1_mvalid $end
$var wire 1 3 m1_svalid $end
$var wire 1 4 m1_breq $end
$var wire 1 5 m1_bgrant $end
$var wire 1 6 m1_ack $end
$var wire 1 7 m1_split $end
$var wire 1 8 m2_rdata $end
$var wire 1 9 m2_wdata $end
$var wire 1 : m2_mode $end
$var wire 1 ; m2_mvalid $end
$var wire 1 < m2_svalid $end
$var wire 1 = m2_breq $end
$var wire 1 > m2_bgrant $end
$var wire 1 ? m2_ack $end
$var wire 1 @ m2_split $end
$var wire 1 A s1_rdata $end
$var wire 1 B s1_wdata $end
$var wire 1 C s1_mode $end
$var wire 1 D s1_mvalid $end
$var wire 1 E s1_svalid $end
$var wire 1 F s1_ready $end
$var wire 1 G s2_rdata $end
$var wire 1 H s2_wdata $end
$var wire 1 I s2_mode $end
$var wire 1 J s2_mvalid $end
$var wire 1 K s2_svalid $end
$var wire 1 L s2_ready $end
$var wire 1 M s3_rdata $end
$var wire 1 N s3_wdata $end
$var wire 1 O s3_mode $end
$var wire 1 P s3_mvalid $end
$var wire 1 Q s3_svalid $end
$var wire 1 R s3_ready $end
$var wire 1 S s3_split $end
$var wire 1 T split_grant $end
$var wire 1 !" m_wdata $end
$var wire 1 "" m_mode $end
$var wire 1 #" m_mvalid $end
$var wire 1 $" m_select $end
$var wire 2 %" s_select [1:0] $end
$var wire 1 &" m_ack $end
$var wire 1 '" s_rdata $end
$var wire 1 (" s_svalid $end
$var wire 1 )" s_split $end
$scope module bus_arbiter $end
$var wire 1 }! clk $end
$var wire 1 ~! rstn $end
$var wire 1 4 breq1 $end
$var wire 1 = breq2 $end
$var wire 1 F sready1 $end
$var wire 1 L sready2 $end
$var wire 1 R sreadysp $end
$var wire 1 )" ssplit $end
$var wire 1 5 bgrant1 $end
$var wire 1 > bgrant2 $end
$var wire 1 $" msel $end
$var reg 1 *" msplit1 $end
$var reg 1 +" msplit2 $end
$var reg 1 ," split_grant $end
$var wire 1 -" sready $end
$var wire 1 ." sready_nsplit $end
$var reg 2 /" split_owner [1:0] $end
$var reg 3 0" state [2:0] $end
$var reg 3 1" next_state [2:0] $end
$upscope $end
$scope module decoder $end
$var wire 1 }! clk $end
$var wire 1 ~! rstn $end
$var wire 1 !" mwdata $end
$var wire 1 #" mvalid $end
$var wire 1 )" ssplit $end
$var wire 1 T split_grant $end
$var wire 1 F sready1 $end
$var wire 1 L sready2 $end
$var wire 1 R sready3 $end
$var wire 1 D mvalid1 $end
$var wire 1 J mvalid2 $end
$var wire 1 P mvalid3 $end
$var reg 2 2" ssel [1:0] $end
$var wire 1 &" ack $end
$var reg 4 3" slave_addr [3:0] $end
$var reg 1 4" slave_en $end
$var wire 1 5" mvalid_out $end
$var wire 1 6" slave_addr_valid $end
$var wire 3 7" sready [2:0] $end
$var reg 4 8" counter [3:0] $end
$var reg 4 9" split_slave_addr [3:0] $end
$var reg 2 :" state [1:0] $end
$var reg 2 ;" next_state [1:0] $end
$scope module mvalid_decoder $end
$var wire 2 2" sel [1:0] $end
$var wire 1 5" en $end
$var wire 1 D out1 $end
$var wire 1 J out2 $end
$var wire 1 P out3 $end
$upscope $end
$upscope $end
$scope module wdata_mux $end
$var wire 1 0 in0 [0:0] $end
$var wire 1 9 in1 [0:0] $end
$var wire 1 $" sel $end
$var wire 1 !" out [0:0] $end
$upscope $end
$scope module mctrl_mux $end
$var wire 2 <" in0 [1:0] $end
$var wire 2 =" in1 [1:0] $end
$var wire 1 $" sel $end
$var wire 2 >" out [1:0] $end
$upscope $end
$scope module rdata_mux $end
$var wire 1 A in0 [0:0] $end
$var wire 1 G in1 [0:0] $end
$var wire 1 M in2 [0:0] $end
$var wire 2 %" sel [1:0] $end
$var reg 1 ?" out [0:0] $end
$upscope $end
$scope module rctrl_mux $end
$var wire 1 E in0 [0:0] $end
$var wire 1 K in1 [0:0] $end
$var wire 1 Q in2 [0:0] $end
$var wire 2 %" sel [1:0] $end
$var reg 1 @" out [0:0] $end
$upscope $end
$upscope $end
$scope task random_delay $end
$var integer 32 A" delay [31:0] $end
$upscope $end
$upscope $end
$enddefinitions $end
#0
$dumpvars
0!
x!!
x!"
0"
bx "!
x""
b0 #
bx #!
x#"
bx $
bx $!
x$"
b0 %
bx %!
bx %"
0&
b0 &!
x&"
x'
bx '!
x'"
0(
0(!
x("
b0 )
0)!
x)"
bx *
0*!
x*"
b0 +
x+!
x+"
0,
bx ,!
x,"
x-
x-!
x-"
0.
x.!
x."
x/
bx /!
bx /"
x0
bx 0!
bx 0"
x1
x1!
bx 1"
x2
x2!
bx 2"
x3
x3!
bx 3"
x4
bx 4!
x4"
x5
bx 5!
x5"
x6
x6!
x6"
x7
x7!
bx 7"
x8
bx 8!
bx 8"
x9
bx 9!
bx 9"
x:
bx :!
bx :"
x;
x;!
bx ;"
x<
bx <!
bx <"
x=
bx =!
bx ="
x>
bx >!
bx >"
x?
b0 ?!
x?"
x@
bx @!
x@"
xA
bx A!
bx A"
xB
xB!
xC
xC!
xD
b100000000000 D!
xE
0E!
xF
0F!
xG
0G!
xH
xH!
xI
bx I!
xJ
xJ!
xK
xK!
xL
bx L!
xM
bx M!
xN
xN!
xO
xO!
xP
xP!
xQ
bx Q!
xR
bx R!
xS
xS!
xT
xT!
bx U
bx U!
bx V
bx V!
bx W
bx W!
bx X
xX!
bx Y
bx Y!
bx Z
bx Z!
bx [
bx [!
bx \
b0 \!
bx ]
bx ]!
bx ^
bx ^!
x_
x_!
x`
x`!
bx a
b1000000000000 a!
bx b
0b!
xc
0c!
0d
bx d!
0e
xe!
b0 f
xf!
b0 g
bx g!
0h
bx h!
0i
xi!
xj
xj!
xk
xk!
bx l
bx l!
bx m
bx m!
xn
xn!
bx o
xo!
bx p
bx p!
bx q
bx q!
bx r
bx r!
b0 s
xs!
bx t
bx t!
0u
bx u!
0v
bx v!
b0 w
bx w!
b0 x
bx x!
0y
bx y!
0z
xz!
x{
x{!
x|
b1000000000000 |!
bx }
0}!
bx ~
0~!
$end
#5000
1!
0!!
0!"
b0 "!
0""
b0 #!
0#"
b0 $
b0 $!
0$"
b0 %!
b0 %"
0&"
1'
b0 '!
0'"
1(!
0("
0)"
b0 *
0*"
0+!
0+"
0,"
1-
0-!
1-"
0.!
1."
0/
b0 /!
b0 /"
00
b0 0!
b0 0"
01
01!
b0 1"
02
02!
b0 2"
03
03!
b0 3"
04
b0 4!
04"
05
b0 5!
05"
06
06!
16"
07
07!
b111 7"
08
b0 8!
b0 8"
09
b0 9!
b0 9"
0:
b0 :"
0;
0;!
b0 ;"
0<
b0 <!
b0 <"
0=
b0 =!
b0 ="
0>
b0 >!
b0 >"
0?
0?"
0@
b0 @!
0@"
0A
0B
0B!
0C
0C!
0D
0E
1E!
1F
0G
0H
0H!
0I
0J
0J!
0K
0K!
1L
b0 L!
0M
b0 M!
0N
0N!
0O
0O!
0P
0P!
0Q
b0 Q!
1R
b0 R!
0S
0S!
0T
0T!
b0 U!
b0 V!
0X!
b0 Y!
b0 Z!
b0 [!
b0 ]!
0_!
0`!
1b!
1c
1d
0e!
0f!
b0 g!
b0 h!
0i!
0j
0j!
0k
0k!
b0 l
b0 l!
b0 m
b0 m!
0n
0n!
b0 o
0o!
b0 p
b0 p!
b0 q
b0 q!
b0 r
0s!
b0 t
b0 t!
1u
b0 u!
b0 v!
b0 w!
b0 x!
0z!
0{
0{!
0|
b0 }
1}!
b0 ~
#10000
0!
0(!
0E!
0b!
0d
0u
0}!
#15000
1!
1(!
1E!
1b!
1d
1u
1}!
#20000
0!
0(!
0E!
0b!
0d
0u
0}!
#25000
1!
1"
1(!
1)!
1E!
1F!
1b!
1c!
1d
1e
1u
1v
1}!
1~!
#30000
0!
0(!
0E!
0b!
0d
0u
0}!
#35000
1!
1(!
1E!
1b!
1d
1u
1}!
#40000
0!
0(!
0E!
0b!
0d
0u
0}!
#45000
1!
1(!
1E!
b0 U
b11001010010 V
b10101111 W
b1 Y
b1001001 Z
b0 ]
b0 ^
1b!
1d
1u
1}!
#50000
0!
0(!
0E!
0b!
0d
0u
0}!
#55000
1!
1""
b1 #
0#"
b11001010010 %
1&
1(
1(!
11
b10 <"
b10 >"
b0 A"
1C
1E!
1I
1O
1b!
1d
b1 f
b11001010010 g
1h
1i
b1 l
b11001010010 m
1n
b100 s
1u
1}!
#60000
0!
0(!
0E!
0b!
0d
0u
0}!
#65000
1!
1!!
1""
0#"
b100 &!
0'
1(!
b1001001 )
b10101111 +
1,
1.
b1 1"
14
1:
b10 ="
1E!
1b!
1d
b100 r
1u
b1001001 w
b10101111 x
1y
1z
b1001001 }
1}!
b10101111 ~
#70000
0!
0(!
0E!
0b!
0d
0u
0}!
#75000
1!
0$"
b100 %!
0&
b100 &!
1(!
0,
0-
b1 0"
15
1=
0>
1E!
1b!
1d
0h
b101 s
b100 t
1u
0y
1}!
#80000
0!
0(!
0E!
0b!
0d
0u
0}!
#85000
1!
0'
b100 '!
1(!
14
1E!
1b!
1d
b101 r
1u
1}!
#90000
0!
0(!
0E!
0b!
0d
0u
0}!
#95000
1!
1""
1#"
1(!
12
05"
b1 ;"
b11 <"
b11 >"
1E!
1b!
1d
1k
b1 p
b101 t
1u
1}!
#100000
0!
0(!
0E!
0b!
0d
0u
0}!
#105000
1!
0&"
1(!
b1 8"
b1 :"
1E!
1b!
1d
b10 p
1u
1}!
#110000
0!
0(!
0E!
0b!
0d
0u
0}!
#115000
1!
1(!
b10 8"
1E!
1b!
1d
b11 p
b110 s
1u
1}!
#120000
0!
0(!
0E!
0b!
0d
0u
0}!
#125000
1!
0'
1(!
14
b11 8"
b10 ;"
1E!
1b!
1d
b0 p
b110 r
1u
1}!
#130000
0!
0(!
0E!
0b!
0d
0u
0}!
#135000
1!
1""
0#"
1&"
1(!
02
05"
16
b0 8"
b10 :"
b10 ;"
b10 <"
b10 >"
1?
1E!
1b!
1d
0k
b1 q
b1 s
b110 t
1u
1}!
#140000
0!
0(!
0E!
0b!
0d
0u
0}!
#145000
1!
0'
1(!
14
14"
05"
1E!
1b!
1d
b10 q
b1 r
1u
1}!
#150000
0!
0(!
0E!
0b!
0d
0u
0}!
#155000
1!
1""
1#"
1(!
12
15"
b11 ;"
b11 <"
b11 >"
b1 ?!
1D
1E!
0J
0P
1b!
1d
1k
b1 p
b1 t
1u
1}!
#160000
0!
0(!
0E!
0b!
0d
0u
0}!
#165000
1!
1!"
0&"
1(!
0-"
0."
10
06
06"
b110 7"
b11 :"
1;!
b11 ;"
b1 <!
b1 >!
0?
1B
1E!
0F
1H
1N
1b!
0c
1d
1j
b10 p
1u
1}!
#170000
0!
0(!
0E!
0b!
0d
0u
0}!
#175000
1!
0!"
1(!
00
b10 9!
b10 <!
b1 @!
0B
1E!
0H
0N
1b!
1d
0j
b11 p
1u
1}!
#180000
0!
0(!
0E!
0b!
0d
0u
0}!
#185000
1!
1(!
b11 <!
1E!
1b!
1d
b100 p
1u
1}!
#190000
0!
0(!
0E!
0b!
0d
0u
0}!
#195000
1!
1!"
1(!
10
b100 <!
1B
1E!
1H
1N
1b!
1d
1j
b101 p
1u
1}!
#200000
0!
0(!
0E!
0b!
0d
0u
0}!
#205000
1!
0!"
1(!
00
b10010 9!
b101 <!
0B
1E!
0H
0N
1b!
1d
0j
b110 p
1u
1}!
#210000
0!
0(!
0E!
0b!
0d
0u
0}!
#215000
1!
1!"
1(!
10
b110 <!
1B
1E!
1H
1N
1b!
1d
1j
b111 p
1u
1}!
#220000
0!
0(!
0E!
0b!
0d
0u
0}!
#225000
1!
0!"
1(!
00
b1010010 9!
b111 <!
0B
1E!
0H
0N
1b!
1d
0j
b1000 p
1u
1}!
#230000
0!
0(!
0E!
0b!
0d
0u
0}!
#235000
1!
1(!
b1000 <!
1E!
1b!
1d
b1001 p
1u
1}!
#240000
0!
0(!
0E!
0b!
0d
0u
0}!
#245000
1!
1!"
1(!
10
b1001 <!
1B
1E!
1H
1N
1b!
1d
1j
b1010 p
1u
1}!
#250000
0!
0(!
0E!
0b!
0d
0u
0}!
#255000
1!
1(!
b1001010010 9!
b1010 <!
b11 ?!
1E!
1b!
1d
b1011 p
b11 s
1u
1}!
#260000
0!
0(!
0E!
0b!
0d
0u
0}!
#265000
1!
0!"
0'
1(!
00
14
b11001010010 9!
b0 <!
b11 >!
0B
1E!
0F
0H
0N
1b!
1d
0j
b0 p
b11 r
1u
1}!
#270000
0!
0(!
0E!
0b!
0d
0u
0}!
#275000
1!
1""
0#"
1(!
02
05"
b10 <"
b10 >"
b11 @!
0D
1E!
0J
0P
1b!
1d
0k
b11 t
1u
1}!
#280000
0!
0(!
0E!
0b!
0d
0u
0}!
#285000
1!
1!"
1""
1#"
1(!
10
12
15"
b11 <"
b11 >"
1B
1D
1E!
1H
0J
1N
0P
1b!
1d
1j
1k
b1 p
1u
1}!
#290000
0!
0(!
0E!
0b!
0d
0u
0}!
#295000
1!
0!"
1(!
00
b1 8!
b1 <!
0B
1E!
0H
0N
1b!
1d
0j
b10 p
1u
1}!
#300000
0!
0(!
0E!
0b!
0d
0u
0}!
#305000
1!
1(!
b10 <!
1E!
1b!
1d
b11 p
1u
1}!
#310000
0!
0(!
0E!
0b!
0d
0u
0}!
#315000
1!
1(!
b11 <!
1E!
1b!
1d
b100 p
1u
1}!
#320000
0!
0(!
0E!
0b!
0d
0u
0}!
#325000
1!
1(!
b100 <!
1E!
1b!
1d
b101 p
1u
1}!
#330000
0!
0(!
0E!
0b!
0d
0u
0}!
#335000
1!
1(!
b101 <!
1E!
1b!
1d
b110 p
1u
1}!
#340000
0!
0(!
0E!
0b!
0d
0u
0}!
#345000
1!
1(!
b110 <!
1E!
1b!
1d
b111 p
b0 s
1u
1}!
#350000
0!
0(!
0E!
0b!
0d
0u
0}!
#355000
1!
1'
1(!
b0 1"
04
b111 <!
b101 ?!
1E!
1b!
1d
b0 p
b0 r
1u
1}!
#360000
0!
0(!
0E!
0b!
0d
0u
0}!
#365000
1!
1""
0#"
0$"
1(!
1-!
b0 0"
02
12!
05
05"
b0 <!
b10 <"
0>
b101 >!
b10 >"
b0 ?!
0D
1E!
0F
0J
0P
1b!
1d
0k
b0 q
b0 t
1u
1}!
#370000
0!
0(!
0E!
0b!
0d
0u
0}!
#375000
1!
0&"
1(!
1-"
1."
b11001010010 /!
b1 0!
b10 1"
b11001010010 4!
b1 5!
16"
b111 7"
b0 ;"
b0 >!
b101 @!
1E!
1F
1b!
1c
1d
1u
1}!
#380000
0!
0(!
0E!
0b!
0d
0u
0}!
#385000
1!
0!"
1""
0#"
1$"
b101 &!
0&"
1(!
0-!
b10 0"
02!
05
b0 :"
1>
b0 @!
1E!
1b!
1d
1u
1}!
#390000
0!
0(!
0E!
0b!
0d
0u
0}!
#395000
1!
b101 %!
1(!
0-
04"
05"
1=
1E!
1b!
1d
1u
1}!
#400000
0!
0(!
0E!
0b!
0d
0u
0}!
#405000
1!
1""
b1 #!
1#"
b101 '!
1(!
05"
1;
b1 ;"
b11 ="
b11 >"
1E!
1b!
1d
1u
1|
1}!
#410000
0!
0(!
0E!
0b!
0d
0u
0}!
#415000
1!
b10 #!
0&"
1(!
b1 8"
b1 :"
1E!
1b!
1d
1u
1}!
#420000
0!
0(!
0E!
0b!
0d
0u
0}!
#425000
1!
b11 #!
b110 &!
1(!
b10 8"
1E!
1b!
1d
1u
1}!
#430000
0!
0(!
0E!
0b!
0d
0u
0}!
#435000
1!
b0 #!
b110 %!
1(!
0-
b11 8"
b10 ;"
1=
1E!
1b!
1d
1u
1}!
#440000
0!
0(!
0E!
0b!
0d
0u
0}!
#445000
1!
1""
0#"
b1 $!
b1 &!
1&"
b110 '!
1(!
05"
16
b0 8"
b10 :"
0;
b10 ;"
b10 ="
b10 >"
1?
1E!
1b!
1d
1u
0|
1}!
#450000
0!
0(!
0E!
0b!
0d
0u
0}!
#455000
1!
b10 $!
b1 %!
1(!
0-
14"
05"
1=
1E!
1b!
1d
1u
1}!
#460000
0!
0(!
0E!
0b!
0d
0u
0}!
#465000
1!
1!"
1""
b1 #!
1#"
b1 '!
1(!
15"
19
1;
b11 ;"
b11 ="
b11 >"
b1 ?!
1B
1D
1E!
1H
0J
1N
0P
1b!
1d
1u
1{
1|
1}!
#470000
0!
0(!
0E!
0b!
0d
0u
0}!
#475000
1!
b10 #!
0&"
1(!
0-"
0."
06
06"
b110 7"
b11001010011 9!
b11 :"
b11 ;"
b1 <!
b1 >!
0?
1E!
0F
1b!
0c
1d
1u
1}!
#480000
0!
0(!
0E!
0b!
0d
0u
0}!
#485000
1!
b11 #!
1(!
b10 <!
b1 @!
1E!
1b!
1d
1u
1}!
#490000
0!
0(!
0E!
0b!
0d
0u
0}!
#495000
1!
b100 #!
1(!
b11001010111 9!
b11 <!
1E!
1b!
1d
1u
1}!
#500000
0!
0(!
0E!
0b!
0d
0u
0}!
#505000
1!
0!"
b101 #!
1(!
09
b11001011111 9!
b100 <!
0B
1E!
0H
0N
1b!
1d
1u
0{
1}!
#510000
0!
0(!
0E!
0b!
0d
0u
0}!
#515000
1!
1!"
b110 #!
1(!
19
b11001001111 9!
b101 <!
1B
1E!
1H
1N
1b!
1d
1u
1{
1}!
#520000
0!
0(!
0E!
0b!
0d
0u
0}!
#525000
1!
0!"
b111 #!
1(!
09
b11001101111 9!
b110 <!
0B
1E!
0H
0N
1b!
1d
1u
0{
1}!
#530000
0!
0(!
0E!
0b!
0d
0u
0}!
#535000
1!
1!"
b1000 #!
1(!
19
b11000101111 9!
b111 <!
1B
1E!
1H
1N
1b!
1d
1u
1{
1}!
#540000
0!
0(!
0E!
0b!
0d
0u
0}!
#545000
1!
0!"
b1001 #!
1(!
09
b11010101111 9!
b1000 <!
0B
1E!
0H
0N
1b!
1d
1u
0{
1}!
#550000
0!
0(!
0E!
0b!
0d
0u
0}!
#555000
1!
b1010 #!
1(!
b1001 <!
1E!
1b!
1d
1u
1}!
#560000
0!
0(!
0E!
0b!
0d
0u
0}!
#565000
1!
b1011 #!
b11 &!
1(!
b10010101111 9!
b1010 <!
b11 ?!
1E!
1b!
1d
1u
1}!
#570000
0!
0(!
0E!
0b!
0d
0u
0}!
#575000
1!
b0 #!
b11 %!
1(!
0-
b10101111 9!
b0 <!
1=
b11 >!
1E!
0F
1b!
1d
1u
1}!
#580000
0!
0(!
0E!
0b!
0d
0u
0}!
#585000
1!
1""
0#"
b11 '!
1(!
05"
0;
b10 ="
b10 >"
b11 @!
0D
1E!
0J
0P
1b!
1d
1u
0|
1}!
#590000
0!
0(!
0E!
0b!
0d
0u
0}!
#595000
1!
1!"
1""
b1 #!
1#"
1(!
15"
19
1;
b11 ="
b11 >"
1B
1D
1E!
1H
0J
1N
0P
1b!
1d
1u
1{
1|
1}!
#600000
0!
0(!
0E!
0b!
0d
0u
0}!
#605000
1!
0!"
b10 #!
1(!
09
b1 <!
0B
1E!
0H
0N
1b!
1d
1u
0{
1}!
#610000
0!
0(!
0E!
0b!
0d
0u
0}!
#615000
1!
b11 #!
1(!
b10 <!
1E!
1b!
1d
1u
1}!
#620000
0!
0(!
0E!
0b!
0d
0u
0}!
#625000
1!
1!"
b100 #!
1(!
19
b11 <!
1B
1E!
1H
1N
1b!
1d
1u
1{
1}!
#630000
0!
0(!
0E!
0b!
0d
0u
0}!
#635000
1!
0!"
b101 #!
1(!
b1001 8!
09
b100 <!
0B
1E!
0H
0N
1b!
1d
1u
0{
1}!
#640000
0!
0(!
0E!
0b!
0d
0u
0}!
#645000
1!
b110 #!
1(!
b101 <!
1E!
1b!
1d
1u
1}!
#650000
0!
0(!
0E!
0b!
0d
0u
0}!
