Serial/Vivado/Serial_bus/Serial_bus.sim/sim_1/behav/xsim/simple_read_test.vcd
$date
   Tue Oct 14 16:26:21 2025
$end
$version
  2022.2
$end
$timescale
  1ps
$end
$scope module simple_read_test $end
$var reg 1 ! clk $end
$var reg 1 " rstn $end
$var reg 8 # d1_wdata [7:0] $end
$var wire 8 $ d1_rdata [7:0] $end
$var reg 16 % d1_addr [15:0] $end
$var reg 1 & d1_valid $end
$var wire 1 ' d1_ready $end
$var reg 1 ( d1_mode $end
$var reg 8 ) d2_wdata [7:0] $end
$var wire 8 * d2_rdata [7:0] $end
$var reg 16 + d2_addr [15:0] $end
$var reg 1 , d2_valid $end
$var wire 1 - d2_ready $end
$var reg 1 . d2_mode $end
$var wire 1 / m1_rdata $end
$var wire 1 0 m1_wdata $end
$var wire 1 1 m1_mode $end
$var wire 1 2 m1_mvalid $end
$var wire 1 3 m1_svalid $end
$var wire 1 4 m1_breq $end
$var wire 1 5 m1_bgrant $end
$var wire 1 6 m1_ack $end
$var wire 1 7 m1_split $end
$var wire 1 8 m2_rdata $end
$var wire 1 9 m2_wdata $end
$var wire 1 : m2_mode $end
$var wire 1 ; m2_mvalid $end
$var wire 1 < m2_svalid $end
$var wire 1 = m2_breq $end
$var wire 1 > m2_bgrant $end
$var wire 1 ? m2_ack $end
$var wire 1 @ m2_split $end
$var wire 1 A s1_rdata $end
$var wire 1 B s1_wdata $end
$var wire 1 C s1_mode $end
$var wire 1 D s1_mvalid $end
$var wire 1 E s1_svalid $end
$var wire 1 F s1_ready $end
$var wire 1 G s2_rdata $end
$var wire 1 H s2_wdata $end
$var wire 1 I s2_mode $end
$var wire 1 J s2_mvalid $end
$var wire 1 K s2_svalid $end
$var wire 1 L s2_ready $end
$var wire 1 M s3_rdata $end
$var wire 1 N s3_wdata $end
$var wire 1 O s3_mode $end
$var wire 1 P s3_mvalid $end
$var wire 1 Q s3_svalid $end
$var wire 1 R s3_ready $end
$var wire 1 S s3_split $end
$var wire 1 T split_grant $end
$var integer 32 U test_count [31:0] $end
$var integer 32 V error_count [31:0] $end
$var wire 1 W s_ready $end
$scope module master1 $end
$var wire 1 X clk $end
$var wire 1 Y rstn $end
$var wire 8 Z dwdata [7:0] $end
$var wire 8 $ drdata [7:0] $end
$var wire 16 [ daddr [15:0] $end
$var wire 1 \ dvalid $end
$var wire 1 ' dready $end
$var wire 1 ] dmode $end
$var wire 1 / mrdata $end
$var reg 1 ^ mwdata $end
$var wire 1 1 mmode $end
$var reg 1 _ mvalid $end
$var wire 1 3 svalid $end
$var wire 1 4 mbreq $end
$var wire 1 5 mbgrant $end
$var wire 1 7 msplit $end
$var wire 1 6 ack $end
$var reg 8 ` wdata [7:0] $end
$var reg 16 a addr [15:0] $end
$var reg 1 b mode $end
$var reg 8 c rdata [7:0] $end
$var reg 8 d counter [7:0] $end
$var reg 8 e timeout [7:0] $end
$var reg 3 f state [2:0] $end
$var reg 3 g next_state [2:0] $end
$upscope $end
$scope module master2 $end
$var wire 1 h clk $end
$var wire 1 i rstn $end
$var wire 8 j dwdata [7:0] $end
$var wire 8 * drdata [7:0] $end
$var wire 16 k daddr [15:0] $end
$var wire 1 l dvalid $end
$var wire 1 - dready $end
$var wire 1 m dmode $end
$var wire 1 8 mrdata $end
$var reg 1 n mwdata $end
$var wire 1 : mmode $end
$var reg 1 o mvalid $end
$var wire 1 < svalid $end
$var wire 1 = mbreq $end
$var wire 1 > mbgrant $end
$var wire 1 @ msplit $end
$var wire 1 ? ack $end
$var reg 8 p wdata [7:0] $end
$var reg 16 q addr [15:0] $end
$var reg 1 r mode $end
$var reg 8 s rdata [7:0] $end
$var reg 8 t counter [7:0] $end
$var reg 8 u timeout [7:0] $end
$var reg 3 v state [2:0] $end
$var reg 3 w next_state [2:0] $end
$upscope $end
$scope module slave1 $end
$var wire 1 x clk $end
$var wire 1 y rstn $end
$var wire 1 B swdata $end
$var wire 1 A srdata $end
$var wire 1 C smode $end
$var wire 1 D mvalid $end
$var wire 1 z split_grant $end
$var wire 1 E svalid $end
$var wire 1 F sready $end
$var wire 1 { ssplit $end
$var wire 8 | smemrdata [7:0] $end
$var wire 1 } smemwen $end
$var wire 1 ~ smemren $end
$var wire 12 !! smemaddr [11:0] $end
$var wire 8 "! smemwdata [7:0] $end
$var wire 1 #! rvalid $end
$scope module sp $end
$var wire 1 x clk $end
$var wire 1 y rstn $end
$var wire 8 | smemrdata [7:0] $end
$var wire 1 #! rvalid $end
$var reg 1 $! smemwen $end
$var reg 1 %! smemren $end
$var reg 12 &! smemaddr [11:0] $end
$var reg 8 '! smemwdata [7:0] $end
$var wire 1 B swdata $end
$var reg 1 (! srdata $end
$var wire 1 C smode $end
$var wire 1 D mvalid $end
$var wire 1 z split_grant $end
$var reg 1 )! svalid $end
$var wire 1 F sready $end
$var wire 1 { ssplit $end
$var reg 8 *! wdata [7:0] $end
$var reg 12 +! addr [11:0] $end
$var wire 8 ,! rdata [7:0] $end
$var reg 1 -! mode $end
$var reg 8 .! counter [7:0] $end
$var reg 4 /! rcounter [3:0] $end
$var reg 3 0! state [2:0] $end
$var reg 3 1! next_state [2:0] $end
$upscope $end
$scope module sm $end
$var wire 1 x clk $end
$var wire 1 y rstn $end
$var wire 1 } wen $end
$var wire 1 ~ ren $end
$var wire 12 !! addr [11:0] $end
$var wire 8 "! wdata [7:0] $end
$var reg 8 2! rdata [7:0] $end
$var reg 1 3! rvalid $end
$var reg 1 4! ren_prev $end
$var integer 32 5! i [31:0] $end
$upscope $end
$upscope $end
$scope module slave2 $end
$var wire 1 6! clk $end
$var wire 1 7! rstn $end
$var wire 1 H swdata $end
$var wire 1 G srdata $end
$var wire 1 I smode $end
$var wire 1 J mvalid $end
$var wire 1 8! split_grant $end
$var wire 1 K svalid $end
$var wire 1 L sready $end
$var wire 1 9! ssplit $end
$var wire 8 :! smemrdata [7:0] $end
$var wire 1 ;! smemwen $end
$var wire 1 <! smemren $end
$var wire 12 =! smemaddr [11:0] $end
$var wire 8 >! smemwdata [7:0] $end
$var wire 1 ?! rvalid $end
$scope module sp $end
$var wire 1 6! clk $end
$var wire 1 7! rstn $end
$var wire 8 :! smemrdata [7:0] $end
$var wire 1 ?! rvalid $end
$var reg 1 @! smemwen $end
$var reg 1 A! smemren $end
$var reg 12 B! smemaddr [11:0] $end
$var reg 8 C! smemwdata [7:0] $end
$var wire 1 H swdata $end
$var reg 1 D! srdata $end
$var wire 1 I smode $end
$var wire 1 J mvalid $end
$var wire 1 8! split_grant $end
$var reg 1 E! svalid $end
$var wire 1 L sready $end
$var wire 1 9! ssplit $end
$var reg 8 F! wdata [7:0] $end
$var reg 12 G! addr [11:0] $end
$var wire 8 H! rdata [7:0] $end
$var reg 1 I! mode $end
$var reg 8 J! counter [7:0] $end
$var reg 4 K! rcounter [3:0] $end
$var reg 3 L! state [2:0] $end
$var reg 3 M! next_state [2:0] $end
$upscope $end
$scope module sm $end
$var wire 1 6! clk $end
$var wire 1 7! rstn $end
$var wire 1 ;! wen $end
$var wire 1 <! ren $end
$var wire 12 =! addr [11:0] $end
$var wire 8 >! wdata [7:0] $end
$var reg 8 N! rdata [7:0] $end
$var reg 1 O! rvalid $end
$var reg 1 P! ren_prev $end
$var integer 32 Q! i [31:0] $end
$upscope $end
$upscope $end
$scope module slave3 $end
$var wire 1 R! clk $end
$var wire 1 S! rstn $end
$var wire 1 N swdata $end
$var wire 1 M srdata $end
$var wire 1 O smode $end
$var wire 1 P mvalid $end
$var wire 1 T split_grant $end
$var wire 1 Q svalid $end
$var wire 1 R sready $end
$var wire 1 S ssplit $end
$var wire 8 T! smemrdata [7:0] $end
$var wire 1 U! smemwen $end
$var wire 1 V! smemren $end
$var wire 12 W! smemaddr [11:0] $end
$var wire 8 X! smemwdata [7:0] $end
$var wire 1 Y! rvalid $end
$scope module sp $end
$var wire 1 R! clk $end
$var wire 1 S! rstn $end
$var wire 8 T! smemrdata [7:0] $end
$var wire 1 Y! rvalid $end
$var reg 1 Z! smemwen $end
$var reg 1 [! smemren $end
$var reg 12 \! smemaddr [11:0] $end
$var reg 8 ]! smemwdata [7:0] $end
$var wire 1 N swdata $end
$var reg 1 ^! srdata $end
$var wire 1 O smode $end
$var wire 1 P mvalid $end
$var wire 1 T split_grant $end
$var reg 1 _! svalid $end
$var wire 1 R sready $end
$var wire 1 S ssplit $end
$var reg 8 `! wdata [7:0] $end
$var reg 12 a! addr [11:0] $end
$var wire 8 b! rdata [7:0] $end
$var reg 1 c! mode $end
$var reg 8 d! counter [7:0] $end
$var reg 4 e! rcounter [3:0] $end
$var reg 3 f! state [2:0] $end
$var reg 3 g! next_state [2:0] $end
$upscope $end
$scope module sm $end
$var wire 1 R! clk $end
$var wire 1 S! rstn $end
$var wire 1 U! wen $end
$var wire 1 V! ren $end
$var wire 12 W! addr [11:0] $end
$var wire 8 X! wdata [7:0] $end
$var reg 8 h! rdata [7:0] $end
$var reg 1 i! rvalid $end
$var reg 1 j! ren_prev $end
$var integer 32 k! i [31:0] $end
$upscope $end
$upscope $end
$scope module bus $end
$var wire 1 l! clk $end
$var wire 1 m! rstn $end
$var wire 1 / m1_rdata $end
$var wire 1 0 m1_wdata $end
$var wire 1 1 m1_mode $end
$var wire 1 2 m1_mvalid $end
$var wire 1 3 m1_svalid $end
$var wire 1 4 m1_breq $end
$var wire 1 5 m1_bgrant $end
$var wire 1 6 m1_ack $end
$var wire 1 7 m1_split $end
$var wire 1 8 m2_rdata $end
$var wire 1 9 m2_wdata $end
$var wire 1 : m2_mode $end
$var wire 1 ; m2_mvalid $end
$var wire 1 < m2_svalid $end
$var wire 1 = m2_breq $end
$var wire 1 > m2_bgrant $end
$var wire 1 ? m2_ack $end
$var wire 1 @ m2_split $end
$var wire 1 A s1_rdata $end
$var wire 1 B s1_wdata $end
$var wire 1 C s1_mode $end
$var wire 1 D s1_mvalid $end
$var wire 1 E s1_svalid $end
$var wire 1 F s1_ready $end
$var wire 1 G s2_rdata $end
$var wire 1 H s2_wdata $end
$var wire 1 I s2_mode $end
$var wire 1 J s2_mvalid $end
$var wire 1 K s2_svalid $end
$var wire 1 L s2_ready $end
$var wire 1 M s3_rdata $end
$var wire 1 N s3_wdata $end
$var wire 1 O s3_mode $end
$var wire 1 P s3_mvalid $end
$var wire 1 Q s3_svalid $end
$var wire 1 R s3_ready $end
$var wire 1 S s3_split $end
$var wire 1 T split_grant $end
$var wire 1 n! m_wdata $end
$var wire 1 o! m_mode $end
$var wire 1 p! m_mvalid $end
$var wire 1 q! m_select $end
$var wire 2 r! s_select [1:0] $end
$var wire 1 s! m_ack $end
$var wire 1 t! s_rdata $end
$var wire 1 u! s_svalid $end
$var wire 1 v! s_split $end
$scope module bus_arbiter $end
$var wire 1 l! clk $end
$var wire 1 m! rstn $end
$var wire 1 4 breq1 $end
$var wire 1 = breq2 $end
$var wire 1 F sready1 $end
$var wire 1 L sready2 $end
$var wire 1 R sreadysp $end
$var wire 1 v! ssplit $end
$var wire 1 5 bgrant1 $end
$var wire 1 > bgrant2 $end
$var wire 1 q! msel $end
$var reg 1 w! msplit1 $end
$var reg 1 x! msplit2 $end
$var reg 1 y! split_grant $end
$var wire 1 z! sready $end
$var wire 1 {! sready_nsplit $end
$var reg 2 |! split_owner [1:0] $end
$var reg 3 }! state [2:0] $end
$var reg 3 ~! next_state [2:0] $end
$upscope $end
$scope module decoder $end
$var wire 1 l! clk $end
$var wire 1 m! rstn $end
$var wire 1 n! mwdata $end
$var wire 1 p! mvalid $end
$var wire 1 v! ssplit $end
$var wire 1 T split_grant $end
$var wire 1 F sready1 $end
$var wire 1 L sready2 $end
$var wire 1 R sready3 $end
$var wire 1 D mvalid1 $end
$var wire 1 J mvalid2 $end
$var wire 1 P mvalid3 $end
$var reg 2 !" ssel [1:0] $end
$var wire 1 s! ack $end
$var reg 4 "" slave_addr [3:0] $end
$var reg 1 #" slave_en $end
$var wire 1 $" mvalid_out $end
$var wire 1 %" slave_addr_valid $end
$var wire 3 &" sready [2:0] $end
$var reg 4 '" counter [3:0] $end
$var reg 4 (" split_slave_addr [3:0] $end
$var reg 2 )" state [1:0] $end
$var reg 2 *" next_state [1:0] $end
$scope module mvalid_decoder $end
$var wire 2 !" sel [1:0] $end
$var wire 1 $" en $end
$var wire 1 D out1 $end
$var wire 1 J out2 $end
$var wire 1 P out3 $end
$upscope $end
$upscope $end
$scope module wdata_mux $end
$var wire 1 0 in0 [0:0] $end
$var wire 1 9 in1 [0:0] $end
$var wire 1 q! sel $end
$var wire 1 n! out [0:0] $end
$upscope $end
$scope module mctrl_mux $end
$var wire 2 +" in0 [1:0] $end
$var wire 2 ," in1 [1:0] $end
$var wire 1 q! sel $end
$var wire 2 -" out [1:0] $end
$upscope $end
$scope module rdata_mux $end
$var wire 1 A in0 [0:0] $end
$var wire 1 G in1 [0:0] $end
$var wire 1 M in2 [0:0] $end
$var wire 2 r! sel [1:0] $end
$var reg 1 ." out [0:0] $end
$upscope $end
$scope module rctrl_mux $end
$var wire 1 E in0 [0:0] $end
$var wire 1 K in1 [0:0] $end
$var wire 1 Q in2 [0:0] $end
$var wire 2 r! sel [1:0] $end
$var reg 1 /" out [0:0] $end
$upscope $end
$upscope $end
$scope task m2_write $end
$var reg 16 0" addr [15:0] $end
$var reg 8 1" data [7:0] $end
$upscope $end
$scope task m2_read $end
$var reg 16 2" addr [15:0] $end
$var reg 8 3" data [7:0] $end
$upscope $end
$upscope $end
$enddefinitions $end
#0
$dumpvars
0!
bx !!
bx !"
0"
bx "!
bx ""
b0 #
x#!
x#"
bx $
x$!
x$"
b0 %
x%!
x%"
0&
bx &!
bx &"
x'
bx '!
bx '"
0(
x(!
bx ("
b0 )
x)!
bx )"
bx *
bx *!
bx *"
b0 +
bx +!
bx +"
0,
bx ,!
bx ,"
x-
x-!
bx -"
0.
bx .!
x."
x/
bx /!
x/"
x0
bx 0!
bx 0"
x1
b0 1!
bx 1"
x2
bx 2!
bx 2"
x3
x3!
bx 3"
x4
x4!
x5
b100000000000 5!
x6
06!
x7
07!
x8
08!
x9
x9!
x:
bx :!
x;
x;!
x<
x<!
x=
bx =!
x>
bx >!
x?
x?!
x@
x@!
xA
xA!
xB
bx B!
xC
bx C!
xD
xD!
xE
xE!
xF
bx F!
xG
bx G!
xH
bx H!
xI
xI!
xJ
bx J!
xK
bx K!
xL
bx L!
xM
b0 M!
xN
bx N!
xO
xO!
xP
xP!
xQ
b1000000000000 Q!
xR
0R!
xS
0S!
xT
bx T!
b0 U
xU!
b0 V
xV!
xW
bx W!
0X
bx X!
0Y
xY!
b0 Z
xZ!
b0 [
x[!
0\
bx \!
0]
bx ]!
x^
x^!
x_
x_!
bx `
bx `!
bx a
bx a!
xb
bx b!
bx c
xc!
bx d
bx d!
bx e
bx e!
bx f
bx f!
b0 g
bx g!
0h
bx h!
0i
xi!
b0 j
xj!
b0 k
b1000000000000 k!
0l
0l!
0m
0m!
xn
xn!
xo
xo!
bx p
xp!
bx q
xq!
xr
bx r!
bx s
xs!
bx t
xt!
bx u
xu!
bx v
xv!
b0 w
xw!
0x
xx!
0y
xy!
0z
xz!
x{
x{!
bx |
bx |!
x}
bx }!
x~
bx ~!
$end
#5000
1!
b0 !!
b0 !"
b0 "!
b0 ""
0#!
0#"
b0 $
0$!
0$"
0%!
1%"
b0 &!
b111 &"
1'
b0 '!
b0 '"
0(!
b0 ("
0)!
b0 )"
b0 *
b0 *!
b0 *"
b0 +!
b0 +"
b0 ,!
b0 ,"
1-
0-!
b0 -"
b0 .!
0."
0/
b0 /!
0/"
00
b0 0!
01
02
b0 2!
03
03!
04
04!
05
06
16!
07
08
09
09!
0:
b0 :!
0;
0;!
0<
0<!
0=
b0 =!
0>
b0 >!
0?
0?!
0@
0@!
0A
0A!
0B
b0 B!
0C
b0 C!
0D
0D!
0E
0E!
1F
b0 F!
0G
b0 G!
0H
b0 H!
0I
0I!
0J
b0 J!
0K
b0 K!
1L
b0 L!
0M
0N
b0 N!
0O
0O!
0P
0P!
0Q
1R
1R!
0S
0T
b0 T!
0U!
0V!
1W
b0 W!
1X
b0 X!
0Y!
0Z!
0[!
b0 \!
b0 ]!
0^
0^!
0_
0_!
b0 `
b0 `!
b0 a
b0 a!
0b
b0 b!
b0 c
0c!
b0 d
b0 d!
b0 e
b0 e!
b0 f
b0 f!
b0 g!
1h
b0 h!
0i!
0j!
1l!
0n
0n!
0o
0o!
b0 p
0p!
b0 q
0q!
0r
b0 r!
b0 s
0s!
b0 t
0t!
b0 u
0u!
b0 v
0v!
0w!
1x
0x!
0y!
1z!
0{
1{!
b0 |
b0 |!
0}
b0 }!
0~
b0 ~!
#10000
0!
06!
0R!
0X
0h
0l!
0x
#15000
1!
16!
1R!
1X
1h
1l!
1x
#20000
0!
06!
0R!
0X
0h
0l!
0x
#25000
1!
1"
16!
17!
1R!
1S!
1X
1Y
1h
1i
1l!
1m!
1x
1y
#30000
0!
06!
0R!
0X
0h
0l!
0x
#35000
1!
16!
1R!
1X
1h
1l!
1x
#40000
0!
06!
0R!
0X
0h
0l!
0x
#45000
1!
b1000000000000 0"
b10101010 1"
16!
1R!
1X
1h
1l!
1x
#50000
0!
06!
0R!
0X
0h
0l!
0x
#55000
1!
b10101010 )
b1000000000000 +
1,
b10 ,"
1.
16!
1:
1R!
1X
1h
b10101010 j
b1000000000000 k
1l
1l!
1m
0o!
b10101010 p
0p!
b1000000000000 q
1r
b100 w
1x
#60000
0!
06!
0R!
0X
0h
0l!
0x
#65000
1!
0,
0-
16!
1=
1R!
1X
1h
0l
1l!
b100 v
b100 w
1x
b10 ~!
#70000
0!
06!
0R!
0X
0h
0l!
0x
#75000
1!
b10 -"
05
16!
1>
1C
1I
1O
1R!
1X
1h
1l!
0n!
1o!
0p!
1q!
b101 w
1x
b10 }!
#80000
0!
06!
0R!
0X
0h
0l!
0x
#85000
1!
0-
16!
1=
1R!
1X
1h
1l!
b101 v
1x
#90000
0!
06!
0R!
0X
0h
0l!
0x
#95000
1!
0$"
b1 *"
b11 ,"
b11 -"
16!
19
1;
1B
1H
1N
1R!
1X
1h
1l!
1n
1n!
1o
1o!
1p!
b1 t
1x
#100000
0!
06!
0R!
0X
0h
0l!
0x
#105000
1!
b1 ""
1%"
b1 '"
b1 )"
16!
09
0B
0H
0N
1R!
1X
1h
1l!
0n
0n!
0s!
b10 t
1x
#110000
0!
06!
0R!
0X
0h
0l!
0x
#115000
1!
b10 '"
16!
1R!
1X
1h
1l!
b11 t
b110 w
1x
#120000
0!
06!
0R!
0X
0h
0l!
0x
#125000
1!
b11 '"
b10 *"
0-
16!
1=
1R!
1X
1h
1l!
b0 t
b110 v
1x
#130000
0!
06!
0R!
0X
0h
0l!
0x
#135000
1!
0$"
b0 '"
b10 )"
b10 *"
b10 ,"
b10 -"
16
16!
0;
1?
1R!
1X
1h
1l!
0o
1o!
0p!
1s!
b1 u
b1 w
1x
#140000
0!
06!
0R!
0X
0h
0l!
0x
#145000
1!
b1 !"
1#"
0$"
0-
0."
0/"
16!
1=
0D
0J
0P
1R!
1X
1h
1l!
b1 r!
b10 u
b1 v
1x
#150000
0!
06!
0R!
0X
0h
0l!
0x
#155000
1!
1$"
b11 *"
b11 ,"
b11 -"
16!
1;
0D
1J
b1 M!
0P
1R!
1X
1h
1l!
1o
1o!
1p!
b1 t
1x
#160000
0!
06!
0R!
0X
0h
0l!
0x
#165000
1!
0%"
b101 &"
b11 )"
b11 *"
06
16!
0?
1I!
b1 J!
0L
b1 L!
1R!
0W
1X
1h
1l!
0s!
b10 t
1x
0z!
0{!
#170000
0!
06!
0R!
0X
0h
0l!
0x
#175000
1!
16!
b10 J!
1R!
1X
1h
1l!
b11 t
1x
#180000
0!
06!
0R!
0X
0h
0l!
0x
#185000
1!
16!
b11 J!
1R!
1X
1h
1l!
b100 t
1x
#190000
0!
06!
0R!
0X
0h
0l!
0x
#195000
1!
16!
b100 J!
1R!
1X
1h
1l!
b101 t
1x
#200000
0!
06!
0R!
0X
0h
0l!
0x
#205000
1!
16!
b101 J!
1R!
1X
1h
1l!
b110 t
1x
#210000
0!
06!
0R!
0X
0h
0l!
0x
#215000
1!
16!
b110 J!
1R!
1X
1h
1l!
b111 t
1x
#220000
0!
06!
0R!
0X
0h
0l!
0x
#225000
1!
16!
b111 J!
1R!
1X
1h
1l!
b1000 t
1x
#230000
0!
06!
0R!
0X
0h
0l!
0x
#235000
1!
16!
b1000 J!
1R!
1X
1h
1l!
b1001 t
1x
#240000
0!
06!
0R!
0X
0h
0l!
0x
#245000
1!
16!
b1001 J!
1R!
1X
1h
1l!
b1010 t
1x
#250000
0!
06!
0R!
0X
0h
0l!
0x
#255000
1!
16!
b1010 J!
1R!
1X
1h
1l!
b1011 t
b11 w
1x
#260000
0!
06!
0R!
0X
0h
0l!
0x
#265000
1!
0-
16!
1=
b1011 J!
b11 M!
1R!
1X
1h
1l!
b0 t
b11 v
1x
#270000
0!
06!
0R!
0X
0h
0l!
0x
#275000
1!
16!
b0 J!
0L
b11 L!
1R!
1X
1h
1l!
b1 t
1x
#280000
0!
06!
0R!
0X
0h
0l!
0x
#285000
1!
16!
19
1B
1H
b1 J!
1N
1R!
1X
1h
1l!
1n
1n!
b10 t
1x
#290000
0!
06!
0R!
0X
0h
0l!
0x
#295000
1!
16!
09
0B
b10 F!
0H
b10 J!
0N
1R!
1X
1h
1l!
0n
0n!
b11 t
1x
#300000
0!
06!
0R!
0X
0h
0l!
0x
#305000
1!
16!
19
1B
1H
b11 J!
1N
1R!
1X
1h
1l!
1n
1n!
b100 t
1x
#310000
0!
06!
0R!
0X
0h
0l!
0x
#315000
1!
16!
09
0B
b1010 F!
0H
b100 J!
0N
1R!
1X
1h
1l!
0n
0n!
b101 t
1x
#320000
0!
06!
0R!
0X
0h
0l!
0x
#325000
1!
16!
19
1B
1H
b101 J!
1N
1R!
1X
1h
1l!
1n
1n!
b110 t
1x
#330000
0!
06!
0R!
0X
0h
0l!
0x
#335000
1!
16!
09
0B
b101010 F!
0H
b110 J!
0N
1R!
1X
1h
1l!
0n
0n!
b111 t
b0 w
1x
#340000
0!
06!
0R!
0X
0h
0l!
0x
#345000
1!
1-
16!
19
0=
1B
1H
b111 J!
b101 M!
1N
1R!
1X
1h
1l!
1n
1n!
b0 t
b0 v
1x
b0 ~!
#350000
0!
06!
0R!
0X
0h
0l!
0x
#355000
1!
0$"
b10 ,"
b0 -"
05
16!
0;
1;!
0>
1@!
0B
0C
0D
b10101010 F!
0H
0I
0J
b0 J!
0L
b101 L!
b0 M!
0N
0O
0P
1R!
1X
1h
1l!
0n!
0o
0o!
0p!
0q!
b0 u
1x
b0 }!
#360000
0!
06!
0R!
0X
0h
0l!
0x
#365000
1!
1%"
b111 &"
b0 *"
b1000000000000 2"
16!
b10101010 >!
b10101010 C!
1L
b0 L!
1R!
1W
1X
1h
1l!
0s!
1x
1z!
1{!
#370000
0!
06!
0R!
0X
0h
0l!
0x
#375000
1!
b0 )"
b1000000000000 +
1,
b0 ,"
0.
16!
0:
0;!
0@!
1R!
1X
1h
1l
1l!
0m
0o!
0p!
0r
0s!
b100 w
1x
#380000
0!
06!
0R!
0X
0h
0l!
0x
#385000
1!
0#"
0$"
0,
0-
16!
1=
1R!
1X
1h
0l
1l!
b100 v
b100 w
1x
b10 ~!
#390000
0!
06!
0R!
0X
0h
0l!
0x
#395000
1!
05
16!
1>
1B
1H
1N
1R!
1X
1h
1l!
1n!
0o!
0p!
1q!
b101 w
1x
b10 }!
#400000
0!
06!
0R!
0X
0h
0l!
0x
#405000
1!
0-
16!
1=
1R!
1X
1h
1l!
b101 v
1x
#410000
0!
06!
0R!
0X
0h
0l!
0x
#415000
1!
0$"
b1 *"
b1 ,"
b1 -"
16!
1;
1R!
1X
1h
1l!
1o
0o!
1p!
b1 t
1x
#420000
0!
06!
0R!
0X
0h
0l!
0x
#425000
1!
b1 '"
b1 )"
16!
09
0B
0H
0N
1R!
1X
1h
1l!
0n
0n!
0s!
b10 t
1x
#430000
0!
06!
0R!
0X
0h
0l!
0x
#435000
1!
b10 '"
16!
1R!
1X
1h
1l!
b11 t
b110 w
1x
#440000
0!
06!
0R!
0X
0h
0l!
0x
#445000
1!
b11 '"
b10 *"
0-
16!
1=
1R!
1X
1h
1l!
b0 t
b110 v
1x
#450000
0!
06!
0R!
0X
0h
0l!
0x
#455000
1!
0$"
b0 '"
b10 )"
b10 *"
b0 ,"
b0 -"
16
16!
0;
1?
1R!
1X
1h
1l!
0o
0o!
0p!
1s!
b1 u
b1 w
1x
#460000
0!
06!
0R!
0X
0h
0l!
0x
#465000
1!
1#"
0$"
0-
16!
1=
1R!
1X
1h
1l!
b10 u
b1 v
1x
#470000
0!
06!
0R!
0X
0h
0l!
0x
#475000
1!
1$"
b11 *"
b1 ,"
b1 -"
16!
1;
0D
1J
b1 M!
0P
1R!
1X
1h
1l!
1o
0o!
1p!
b1 t
1x
#480000
0!
06!
0R!
0X
0h
0l!
0x
#485000
1!
0%"
b101 &"
b11 )"
b11 *"
06
16!
0?
0I!
b1 J!
0L
b1 L!
1R!
0W
1X
1h
1l!
0s!
b10 t
1x
0z!
0{!
#490000
0!
06!
0R!
0X
0h
0l!
0x
#495000
1!
16!
b10 J!
1R!
1X
1h
1l!
b11 t
1x
#500000
0!
06!
0R!
0X
0h
0l!
0x
#505000
1!
16!
b11 J!
1R!
1X
1h
1l!
b100 t
1x
#510000
0!
06!
0R!
0X
0h
0l!
0x
#515000
1!
16!
b100 J!
1R!
1X
1h
1l!
b101 t
1x
#520000
0!
06!
0R!
0X
0h
0l!
0x
#525000
1!
16!
b101 J!
1R!
1X
1h
1l!
b110 t
1x
#530000
0!
06!
0R!
0X
0h
0l!
0x
#535000
1!
16!
b110 J!
1R!
1X
1h
1l!
b111 t
1x
#540000
0!
06!
0R!
0X
0h
0l!
0x
#545000
1!
16!
b111 J!
1R!
1X
1h
1l!
b1000 t
1x
#550000
0!
06!
0R!
0X
0h
0l!
0x
#555000
1!
16!
b1000 J!
1R!
1X
1h
1l!
b1001 t
1x
#560000
0!
06!
0R!
0X
0h
0l!
0x
#565000
1!
16!
b1001 J!
1R!
1X
1h
1l!
b1010 t
1x
#570000
0!
06!
0R!
0X
0h
0l!
0x
#575000
1!
16!
b1010 J!
1R!
1X
1h
1l!
b1011 t
b10 w
1x
#580000
0!
06!
0R!
0X
0h
0l!
0x
#585000
1!
0-
16!
1=
b1011 J!
b101 M!
1R!
1X
1h
1l!
b0 t
b10 v
1x
#590000
0!
06!
0R!
0X
0h
0l!
0x
#595000
1!
0$"
b0 ,"
b0 -"
16!
0;
0D
0J
b0 J!
0L
b101 L!
b111 M!
0P
1R!
1X
1h
1l!
0o
0o!
0p!
1x
#600000
0!
06!
0R!
0X
0h
0l!
0x
#605000
1!
16!
1<!
1A!
0L
b111 L!
1R!
1X
1h
1l!
1x
#610000
0!
06!
0R!
0X
0h
0l!
0x
#615000
1!
16!
b10101010 :!
b10101010 H!
b10101010 N!
1P!
1R!
1X
1h
1l!
1x
#620000
0!
06!
0R!
0X
0h
0l!
0x
#625000
1!
16!
1?!
b10 M!
1O!
1R!
1X
1h
1l!
1x
#630000
0!
06!
0R!
0X
0h
0l!
0x
#635000
1!
16!
0L
b10 L!
1R!
1X
1h
1l!
1x
#640000
0!
06!
0R!
0X
0h
0l!
0x
#645000
1!
16!
b1 J!
1R!
1X
1h
1l!
1x
#650000
0!
06!
0R!
0X
0h
0l!
0x
#655000
1!
1/"
13
16!
1<
1E!
b10 J!
1K
1R!
1X
1h
1l!
1u!
1x
#660000
0!
06!
0R!
0X
0h
0l!
0x
#665000
1!
1."
1/
0/"
03
16!
18
0<
1D!
0E!
1G
b11 J!
0K
1R!
1X
1h
1l!
b1 t
1t!
0u!
1x
#670000
0!
06!
0R!
0X
0h
0l!
0x
#675000
1!
1/"
13
16!
1<
1E!
b100 J!
1K
1R!
1X
1h
1l!
1u!
1x
#680000
0!
06!
0R!
0X
0h
0l!
0x
#685000
1!
b10 *
0."
0/
0/"
03
16!
08
0<
0D!
0E!
0G
b101 J!
0K
1R!
1X
1h
1l!
b10 s
b10 t
0t!
0u!
1x
#690000
0!
06!
0R!
0X
0h
0l!
0x
#695000
1!
1/"
13
16!
1<
1E!
b110 J!
1K
1R!
1X
1h
1l!
1u!
1x
#700000
0!
06!
0R!
0X
0h
0l!
0x
#705000
1!
1."
1/
0/"
03
16!
18
0<
1D!
0E!
1G
b111 J!
0K
1R!
1X
1h
1l!
b11 t
1t!
0u!
1x
#710000
0!
06!
0R!
0X
0h
0l!
0x
#715000
1!
1/"
13
16!
1<
1E!
b1000 J!
1K
1R!
1X
1h
1l!
1u!
1x
#720000
0!
06!
0R!
0X
0h
0l!
0x
#725000
1!
b1010 *
0."
0/
0/"
03
16!
08
0<
0D!
0E!
0G
b1001 J!
0K
1R!
1X
1h
1l!
b1010 s
b100 t
0t!
0u!
1x
#730000
0!
06!
0R!
0X
0h
0l!
0x
#735000
1!
1/"
13
16!
1<
1E!
b1010 J!
1K
1R!
1X
1h
1l!
1u!
1x
#740000
0!
06!
0R!
0X
0h
0l!
0x
#745000
1!
1."
1/
0/"
03
16!
18
0<
1D!
0E!
1G
b1011 J!
0K
1R!
1X
1h
1l!
b101 t
1t!
0u!
1x
#750000
0!
06!
0R!
0X
0h
0l!
0x
#755000
1!
1/"
13
16!
1<
1E!
b1100 J!
1K
1R!
1X
1h
1l!
1u!
1x
#760000
0!
06!
0R!
0X
0h
0l!
0x
#765000
1!
b101010 *
0."
0/
0/"
03
16!
08
0<
0D!
0E!
0G
b1101 J!
0K
1R!
1X
1h
1l!
b101010 s
b110 t
0t!
0u!
1x
