sim/simple_read_test.vcd
$date
   Tue Dec  9 02:51:58 2025
$end

$version
  2023.2.2
  $dumpfile ("simple_read_test.vcd") 
$end

$timescale
  1ps
$end

$scope module simple_read_test $end
$var reg 1 ! clk $end
$var reg 1 " rstn $end
$var reg 8 # d1_wdata [7:0] $end
$var wire 8 $ d1_rdata [7:0] $end
$var reg 16 % d1_addr [15:0] $end
$var reg 1 & d1_valid $end
$var wire 1 ' d1_ready $end
$var reg 1 ( d1_mode $end
$var reg 8 ) d2_wdata [7:0] $end
$var wire 8 * d2_rdata [7:0] $end
$var reg 16 + d2_addr [15:0] $end
$var reg 1 , d2_valid $end
$var wire 1 - d2_ready $end
$var reg 1 . d2_mode $end
$var wire 1 / m1_rdata $end
$var wire 1 0 m1_wdata $end
$var wire 1 1 m1_mode $end
$var wire 1 2 m1_mvalid $end
$var wire 1 3 m1_svalid $end
$var wire 1 4 m1_breq $end
$var wire 1 5 m1_bgrant $end
$var wire 1 6 m1_ack $end
$var wire 1 7 m1_split $end
$var wire 1 8 m2_rdata $end
$var wire 1 9 m2_wdata $end
$var wire 1 : m2_mode $end
$var wire 1 ; m2_mvalid $end
$var wire 1 < m2_svalid $end
$var wire 1 = m2_breq $end
$var wire 1 > m2_bgrant $end
$var wire 1 ? m2_ack $end
$var wire 1 @ m2_split $end
$var wire 1 A s1_rdata $end
$var wire 1 B s1_wdata $end
$var wire 1 C s1_mode $end
$var wire 1 D s1_mvalid $end
$var wire 1 E s1_svalid $end
$var wire 1 F s1_ready $end
$var wire 1 G s2_rdata $end
$var wire 1 H s2_wdata $end
$var wire 1 I s2_mode $end
$var wire 1 J s2_mvalid $end
$var wire 1 K s2_svalid $end
$var wire 1 L s2_ready $end
$var wire 1 M s3_rdata $end
$var wire 1 N s3_wdata $end
$var wire 1 O s3_mode $end
$var wire 1 P s3_mvalid $end
$var wire 1 Q s3_svalid $end
$var wire 1 R s3_ready $end
$var wire 1 S s3_split $end
$var wire 1 T split_grant $end
$var integer 32 U test_count [31:0] $end
$var integer 32 V error_count [31:0] $end
$var wire 1 W s_ready $end
$scope module master1 $end
$var wire 1 X clk $end
$var wire 1 Y rstn $end
$var wire 8 Z dwdata [7:0] $end
$var wire 8 $ drdata [7:0] $end
$var wire 16 [ daddr [15:0] $end
$var wire 1 \ dvalid $end
$var wire 1 ' dready $end
$var wire 1 ] dmode $end
$var wire 1 / mrdata $end
$var reg 1 ^ mwdata $end
$var wire 1 1 mmode $end
$var reg 1 _ mvalid $end
$var wire 1 3 svalid $end
$var wire 1 4 mbreq $end
$var wire 1 5 mbgrant $end
$var wire 1 7 msplit $end
$var wire 1 6 ack $end
$var reg 8 ` wdata [7:0] $end
$var reg 16 a addr [15:0] $end
$var reg 1 b mode $end
$var reg 8 c rdata [7:0] $end
$var reg 8 d counter [7:0] $end
$var reg 8 e timeout [7:0] $end
$var reg 3 f state [2:0] $end
$var reg 3 g next_state [2:0] $end
$var reg 3 h prev_state [2:0] $end
$upscope $end
$scope module master2 $end
$var wire 1 i clk $end
$var wire 1 j rstn $end
$var wire 8 k dwdata [7:0] $end
$var wire 8 * drdata [7:0] $end
$var wire 16 l daddr [15:0] $end
$var wire 1 m dvalid $end
$var wire 1 - dready $end
$var wire 1 n dmode $end
$var wire 1 8 mrdata $end
$var reg 1 o mwdata $end
$var wire 1 : mmode $end
$var reg 1 p mvalid $end
$var wire 1 < svalid $end
$var wire 1 = mbreq $end
$var wire 1 > mbgrant $end
$var wire 1 @ msplit $end
$var wire 1 ? ack $end
$var reg 8 q wdata [7:0] $end
$var reg 16 r addr [15:0] $end
$var reg 1 s mode $end
$var reg 8 t rdata [7:0] $end
$var reg 8 u counter [7:0] $end
$var reg 8 v timeout [7:0] $end
$var reg 3 w state [2:0] $end
$var reg 3 x next_state [2:0] $end
$var reg 3 y prev_state [2:0] $end
$upscope $end
$scope module slave1 $end
$var wire 1 z clk $end
$var wire 1 { rstn $end
$var wire 1 B swdata $end
$var wire 1 A srdata $end
$var wire 1 C smode $end
$var wire 1 D mvalid $end
$var wire 1 | split_grant $end
$var wire 1 E svalid $end
$var wire 1 F sready $end
$var wire 1 } ssplit $end
$var wire 8 ~ smemrdata [7:0] $end
$var wire 1 !! smemwen $end
$var wire 1 "! smemren $end
$var wire 11 #! smemaddr [10:0] $end
$var wire 8 $! smemwdata [7:0] $end
$var wire 1 %! rvalid $end
$scope module sp $end
$var wire 1 z clk $end
$var wire 1 { rstn $end
$var wire 8 ~ smemrdata [7:0] $end
$var wire 1 %! rvalid $end
$var reg 1 &! smemwen $end
$var reg 1 '! smemren $end
$var reg 11 (! smemaddr [10:0] $end
$var reg 8 )! smemwdata [7:0] $end
$var wire 1 B swdata $end
$var reg 1 *! srdata $end
$var wire 1 C smode $end
$var wire 1 D mvalid $end
$var wire 1 | split_grant $end
$var reg 1 +! svalid $end
$var wire 1 F sready $end
$var wire 1 } ssplit $end
$var reg 8 ,! wdata [7:0] $end
$var reg 11 -! addr [10:0] $end
$var wire 8 .! rdata [7:0] $end
$var reg 1 /! mode $end
$var reg 8 0! counter [7:0] $end
$var reg 4 1! rcounter [3:0] $end
$var reg 3 2! state [2:0] $end
$var reg 3 3! next_state [2:0] $end
$var reg 3 4! prev_state [2:0] $end
$upscope $end
$scope module sm $end
$var wire 1 z clk $end
$var wire 1 { rstn $end
$var wire 1 !! wen $end
$var wire 1 "! ren $end
$var wire 11 #! addr [10:0] $end
$var wire 8 $! wdata [7:0] $end
$var reg 8 5! rdata [7:0] $end
$var reg 1 6! rvalid $end
$var reg 1 7! ren_prev $end
$var integer 32 8! i [31:0] $end
$upscope $end
$upscope $end
$scope module slave2 $end
$var wire 1 9! clk $end
$var wire 1 :! rstn $end
$var wire 1 H swdata $end
$var wire 1 G srdata $end
$var wire 1 I smode $end
$var wire 1 J mvalid $end
$var wire 1 | split_grant $end
$var wire 1 K svalid $end
$var wire 1 L sready $end
$var wire 1 ;! ssplit $end
$var wire 8 <! smemrdata [7:0] $end
$var wire 1 =! smemwen $end
$var wire 1 >! smemren $end
$var wire 12 ?! smemaddr [11:0] $end
$var wire 8 @! smemwdata [7:0] $end
$var wire 1 A! rvalid $end
$scope module sp $end
$var wire 1 9! clk $end
$var wire 1 :! rstn $end
$var wire 8 <! smemrdata [7:0] $end
$var wire 1 A! rvalid $end
$var reg 1 B! smemwen $end
$var reg 1 C! smemren $end
$var reg 12 D! smemaddr [11:0] $end
$var reg 8 E! smemwdata [7:0] $end
$var wire 1 H swdata $end
$var reg 1 F! srdata $end
$var wire 1 I smode $end
$var wire 1 J mvalid $end
$var wire 1 | split_grant $end
$var reg 1 G! svalid $end
$var wire 1 L sready $end
$var wire 1 ;! ssplit $end
$var reg 8 H! wdata [7:0] $end
$var reg 12 I! addr [11:0] $end
$var wire 8 J! rdata [7:0] $end
$var reg 1 K! mode $end
$var reg 8 L! counter [7:0] $end
$var reg 4 M! rcounter [3:0] $end
$var reg 3 N! state [2:0] $end
$var reg 3 O! next_state [2:0] $end
$var reg 3 P! prev_state [2:0] $end
$upscope $end
$scope module sm $end
$var wire 1 9! clk $end
$var wire 1 :! rstn $end
$var wire 1 =! wen $end
$var wire 1 >! ren $end
$var wire 12 ?! addr [11:0] $end
$var wire 8 @! wdata [7:0] $end
$var reg 8 Q! rdata [7:0] $end
$var reg 1 R! rvalid $end
$var reg 1 S! ren_prev $end
$var integer 32 T! i [31:0] $end
$upscope $end
$upscope $end
$scope module slave3 $end
$var wire 1 U! clk $end
$var wire 1 V! rstn $end
$var wire 1 N swdata $end
$var wire 1 M srdata $end
$var wire 1 O smode $end
$var wire 1 P mvalid $end
$var wire 1 T split_grant $end
$var wire 1 Q svalid $end
$var wire 1 R sready $end
$var wire 1 S ssplit $end
$var wire 8 W! smemrdata [7:0] $end
$var wire 1 X! smemwen $end
$var wire 1 Y! smemren $end
$var wire 12 Z! smemaddr [11:0] $end
$var wire 8 [! smemwdata [7:0] $end
$var wire 1 \! rvalid $end
$scope module sp $end
$var wire 1 U! clk $end
$var wire 1 V! rstn $end
$var wire 8 W! smemrdata [7:0] $end
$var wire 1 \! rvalid $end
$var reg 1 ]! smemwen $end
$var reg 1 ^! smemren $end
$var reg 12 _! smemaddr [11:0] $end
$var reg 8 `! smemwdata [7:0] $end
$var wire 1 N swdata $end
$var reg 1 a! srdata $end
$var wire 1 O smode $end
$var wire 1 P mvalid $end
$var wire 1 T split_grant $end
$var reg 1 b! svalid $end
$var wire 1 R sready $end
$var wire 1 S ssplit $end
$var reg 8 c! wdata [7:0] $end
$var reg 12 d! addr [11:0] $end
$var wire 8 e! rdata [7:0] $end
$var reg 1 f! mode $end
$var reg 8 g! counter [7:0] $end
$var reg 4 h! rcounter [3:0] $end
$var reg 3 i! state [2:0] $end
$var reg 3 j! next_state [2:0] $end
$var reg 3 k! prev_state [2:0] $end
$upscope $end
$scope module sm $end
$var wire 1 U! clk $end
$var wire 1 V! rstn $end
$var wire 1 X! wen $end
$var wire 1 Y! ren $end
$var wire 12 Z! addr [11:0] $end
$var wire 8 [! wdata [7:0] $end
$var reg 8 l! rdata [7:0] $end
$var reg 1 m! rvalid $end
$var reg 1 n! ren_prev $end
$var integer 32 o! i [31:0] $end
$upscope $end
$upscope $end
$scope module bus $end
$var wire 1 p! clk $end
$var wire 1 q! rstn $end
$var wire 1 / m1_rdata $end
$var wire 1 0 m1_wdata $end
$var wire 1 1 m1_mode $end
$var wire 1 2 m1_mvalid $end
$var wire 1 3 m1_svalid $end
$var wire 1 4 m1_breq $end
$var wire 1 5 m1_bgrant $end
$var wire 1 6 m1_ack $end
$var wire 1 7 m1_split $end
$var wire 1 8 m2_rdata $end
$var wire 1 9 m2_wdata $end
$var wire 1 : m2_mode $end
$var wire 1 ; m2_mvalid $end
$var wire 1 < m2_svalid $end
$var wire 1 = m2_breq $end
$var wire 1 > m2_bgrant $end
$var wire 1 ? m2_ack $end
$var wire 1 @ m2_split $end
$var wire 1 A s1_rdata $end
$var wire 1 B s1_wdata $end
$var wire 1 C s1_mode $end
$var wire 1 D s1_mvalid $end
$var wire 1 E s1_svalid $end
$var wire 1 F s1_ready $end
$var wire 1 G s2_rdata $end
$var wire 1 H s2_wdata $end
$var wire 1 I s2_mode $end
$var wire 1 J s2_mvalid $end
$var wire 1 K s2_svalid $end
$var wire 1 L s2_ready $end
$var wire 1 M s3_rdata $end
$var wire 1 N s3_wdata $end
$var wire 1 O s3_mode $end
$var wire 1 P s3_mvalid $end
$var wire 1 Q s3_svalid $end
$var wire 1 R s3_ready $end
$var wire 1 S s3_split $end
$var wire 1 T split_grant $end
$var wire 1 r! m_wdata $end
$var wire 1 s! m_mode $end
$var wire 1 t! m_mvalid $end
$var wire 1 u! m_select $end
$var wire 2 v! s_select [1:0] $end
$var wire 1 w! m_ack $end
$var wire 1 x! s_rdata $end
$var wire 1 y! s_svalid $end
$var wire 1 z! s_split $end
$scope module bus_arbiter $end
$var wire 1 p! clk $end
$var wire 1 q! rstn $end
$var wire 1 4 breq1 $end
$var wire 1 = breq2 $end
$var wire 1 F sready1 $end
$var wire 1 L sready2 $end
$var wire 1 R sreadysp $end
$var wire 1 z! ssplit $end
$var wire 1 5 bgrant1 $end
$var wire 1 > bgrant2 $end
$var wire 1 u! msel $end
$var reg 1 {! msplit1 $end
$var reg 1 |! msplit2 $end
$var reg 1 }! split_grant $end
$var wire 1 ~! sready $end
$var wire 1 !" sready_nsplit $end
$var reg 2 "" split_owner [1:0] $end
$var reg 3 #" state [2:0] $end
$var reg 3 $" next_state [2:0] $end
$upscope $end
$scope module decoder $end
$var wire 1 p! clk $end
$var wire 1 q! rstn $end
$var wire 1 r! mwdata $end
$var wire 1 t! mvalid $end
$var wire 1 z! ssplit $end
$var wire 1 T split_grant $end
$var wire 1 F sready1 $end
$var wire 1 L sready2 $end
$var wire 1 R sready3 $end
$var wire 1 D mvalid1 $end
$var wire 1 J mvalid2 $end
$var wire 1 P mvalid3 $end
$var reg 2 %" ssel [1:0] $end
$var wire 1 w! ack $end
$var reg 4 &" slave_addr [3:0] $end
$var reg 1 '" slave_en $end
$var wire 1 (" mvalid_out $end
$var wire 1 )" slave_addr_valid $end
$var wire 3 *" sready [2:0] $end
$var reg 4 +" counter [3:0] $end
$var reg 4 ," split_slave_addr [3:0] $end
$var reg 2 -" state [1:0] $end
$var reg 2 ." next_state [1:0] $end
$scope module mvalid_decoder $end
$var wire 2 %" sel [1:0] $end
$var wire 1 (" en $end
$var wire 1 D out1 $end
$var wire 1 J out2 $end
$var wire 1 P out3 $end
$upscope $end
$upscope $end
$scope module wdata_mux $end
$var wire 1 0 in0 [0:0] $end
$var wire 1 9 in1 [0:0] $end
$var wire 1 u! sel $end
$var wire 1 r! out [0:0] $end
$upscope $end
$scope module mctrl_mux $end
$var wire 2 /" in0 [1:0] $end
$var wire 2 0" in1 [1:0] $end
$var wire 1 u! sel $end
$var wire 2 1" out [1:0] $end
$upscope $end
$scope module rdata_mux $end
$var wire 1 A in0 [0:0] $end
$var wire 1 G in1 [0:0] $end
$var wire 1 M in2 [0:0] $end
$var wire 2 v! sel [1:0] $end
$var reg 1 2" out [0:0] $end
$upscope $end
$scope module rctrl_mux $end
$var wire 1 E in0 [0:0] $end
$var wire 1 K in1 [0:0] $end
$var wire 1 Q in2 [0:0] $end
$var wire 2 v! sel [1:0] $end
$var reg 1 3" out [0:0] $end
$upscope $end
$upscope $end
$scope task m2_write $end
$var reg 16 4" addr [15:0] $end
$var reg 8 5" data [7:0] $end
$upscope $end
$scope task m2_read $end
$var reg 16 6" addr [15:0] $end
$var reg 8 7" data [7:0] $end
$upscope $end
$upscope $end
$enddefinitions $end

#0
$dumpvars
0!
0!!
1!"
0"
0"!
b0 ""
b0 #
b0 #!
b0 #"
b0 $
b0 $!
b0 $"
b0 %
0%!
b0 %"
0&
0&!
b0 &"
1'
0'!
0'"
0(
b0 (!
0("
b0 )
b0 )!
1)"
b0 *
0*!
b111 *"
b0 +
0+!
b0 +"
0,
b0 ,!
b0 ,"
1-
b0 -!
b0 -"
0.
bx .!
b0 ."
0/
0/!
b0 /"
00
b0 0!
b0 0"
01
b0 1!
b0 1"
02
b0 2!
02"
03
b0 3!
03"
04
b0 4!
bx 4"
05
bx 5!
bx 5"
06
06!
bx 6"
07
07!
bx 7"
08
b100000000000 8!
09
09!
0:
0:!
0;
0;!
0<
bx <!
0=
0=!
0>
0>!
0?
b0 ?!
0@
b0 @!
0A
0A!
0B
0B!
0C
0C!
0D
b0 D!
0E
b0 E!
1F
0F!
0G
0G!
0H
b0 H!
0I
b0 I!
0J
bx J!
0K
0K!
1L
b0 L!
0M
b0 M!
0N
b0 N!
0O
b0 O!
0P
b0 P!
0Q
bx Q!
1R
0R!
0S
0S!
0T
b1000000000000 T!
b0 U
0U!
b0 V
0V!
1W
bx W!
0X
0X!
0Y
0Y!
b0 Z
b0 Z!
b0 [
b0 [!
0\
0\!
0]
0]!
0^
0^!
0_
b0 _!
b0 `
b0 `!
b0 a
0a!
0b
0b!
b0 c
b0 c!
b0 d
b0 d!
b0 e
bx e!
b0 f
0f!
b0 g
b0 g!
b0 h
b0 h!
0i
b0 i!
0j
b0 j!
b0 k
b0 k!
b0 l
bx l!
0m
0m!
0n
0n!
0o
b1000000000000 o!
0p
0p!
b0 q
0q!
b0 r
0r!
0s
0s!
b0 t
0t!
b0 u
0u!
b0 v
b0 v!
b0 w
0w!
b0 x
0x!
b0 y
0y!
0z
0z!
0{
0{!
0|
0|!
0}
0}!
bx ~
1~!
$end

#5000
1!
19!
1U!
1X
1i
1p!
1z

#10000
0!
09!
0U!
0X
0i
0p!
0z

#15000
1!
19!
1U!
1X
1i
1p!
1z

#20000
0!
09!
0U!
0X
0i
0p!
0z

#25000
1!
1"
19!
1:!
1U!
1V!
1X
1Y
1i
1j
1p!
1q!
1z
1{

#30000
0!
09!
0U!
0X
0i
0p!
0z

#35000
1!
19!
1U!
1X
1i
1p!
1z

#40000
0!
09!
0U!
0X
0i
0p!
0z

#45000
1!
b1000000000000 4"
b10101010 5"
19!
1U!
1X
1i
1p!
1z

#50000
0!
09!
0U!
0X
0i
0p!
0z

#55000
1!
b10101010 )
b1000000000000 +
1,
1.
b10 0"
19!
1:
1U!
1X
1i
b10101010 k
b1000000000000 l
1m
1n
1p!
b10101010 q
b1000000000000 r
1s
b100 x
1z

#60000
0!
09!
0U!
0X
0i
0p!
0z

#65000
1!
b10 $"
0,
0-
19!
1=
1U!
1X
1i
0m
1p!
b100 w
b100 x
1z

#70000
0!
09!
0U!
0X
0i
0p!
0z

#75000
1!
b10 #"
b10 1"
19!
1>
1C
1I
1O
1U!
1X
1i
1p!
1s!
1u!
b101 x
b100 y
1z

#80000
0!
09!
0U!
0X
0i
0p!
0z

#85000
1!
19!
1U!
1X
1i
1p!
b101 w
1z

#90000
0!
09!
0U!
0X
0i
0p!
0z

#95000
1!
b1 ."
b11 0"
b11 1"
19
19!
1;
1B
1H
1N
1U!
1X
1i
1o
1p
1p!
1r!
1t!
b1 u
b101 y
1z

#100000
0!
09!
0U!
0X
0i
0p!
0z

#105000
1!
b1 &"
b1 +"
b1 -"
09
19!
0B
0H
0N
1U!
1X
1i
0o
1p!
0r!
b10 u
1z

#110000
0!
09!
0U!
0X
0i
0p!
0z

#115000
1!
b10 +"
19!
1U!
1X
1i
1p!
b11 u
b110 x
1z

#120000
0!
09!
0U!
0X
0i
0p!
0z

#125000
1!
b11 +"
b10 ."
19!
1U!
1X
1i
1p!
b0 u
b110 w
1z

#130000
0!
09!
0U!
0X
0i
0p!
0z

#135000
1!
b0 +"
b10 -"
b10 ."
b10 0"
b10 1"
16
19!
0;
1?
1U!
1X
1i
0p
1p!
0t!
b1 v
1w!
b1 x
b110 y
1z

#140000
0!
09!
0U!
0X
0i
0p!
0z

#145000
1!
b1 %"
1'"
19!
1U!
1X
1i
1p!
b10 v
b1 v!
b1 w
1z

#150000
0!
09!
0U!
0X
0i
0p!
0z

#155000
1!
1("
b11 ."
b11 0"
b11 1"
19!
1;
1J
b1 O!
1U!
1X
1i
1p
1p!
1t!
b1 u
b1 y
1z

#160000
0!
09!
0U!
0X
0i
0p!
0z

#165000
1!
0!"
0)"
b101 *"
b11 -"
06
19!
0?
1K!
0L
b1 L!
b1 N!
1U!
0W
1X
1i
1p!
b10 u
0w!
1z
0~!

#170000
0!
09!
0U!
0X
0i
0p!
0z

#175000
1!
19!
b10 L!
b1 P!
1U!
1X
1i
1p!
b11 u
1z

#180000
0!
09!
0U!
0X
0i
0p!
0z

#185000
1!
19!
b11 L!
1U!
1X
1i
1p!
b100 u
1z

#190000
0!
09!
0U!
0X
0i
0p!
0z

#195000
1!
19!
b100 L!
1U!
1X
1i
1p!
b101 u
1z

#200000
0!
09!
0U!
0X
0i
0p!
0z

#205000
1!
19!
b101 L!
1U!
1X
1i
1p!
b110 u
1z

#210000
0!
09!
0U!
0X
0i
0p!
0z

#215000
1!
19!
b110 L!
1U!
1X
1i
1p!
b111 u
1z

#220000
0!
09!
0U!
0X
0i
0p!
0z

#225000
1!
19!
b111 L!
1U!
1X
1i
1p!
b1000 u
1z

#230000
0!
09!
0U!
0X
0i
0p!
0z

#235000
1!
19!
b1000 L!
1U!
1X
1i
1p!
b1001 u
1z

#240000
0!
09!
0U!
0X
0i
0p!
0z

#245000
1!
19!
b1001 L!
1U!
1X
1i
1p!
b1010 u
1z

#250000
0!
09!
0U!
0X
0i
0p!
0z

#255000
1!
19!
b1010 L!
1U!
1X
1i
1p!
b1011 u
b11 x
1z

#260000
0!
09!
0U!
0X
0i
0p!
0z

#265000
1!
19!
b1011 L!
b11 O!
1U!
1X
1i
1p!
b0 u
b11 w
1z

#270000
0!
09!
0U!
0X
0i
0p!
0z

#275000
1!
0("
b10 0"
b10 1"
19!
0;
0J
b0 L!
b11 N!
1U!
1X
1i
0p
1p!
0t!
b11 y
1z

#280000
0!
09!
0U!
0X
0i
0p!
0z

#285000
1!
1("
b11 0"
b11 1"
19!
1;
1J
b11 P!
1U!
1X
1i
1p
1p!
1t!
b1 u
1z

#290000
0!
09!
0U!
0X
0i
0p!
0z

#295000
1!
19
19!
1B
1H
b1 L!
1N
1U!
1X
1i
1o
1p!
1r!
b10 u
1z

#300000
0!
09!
0U!
0X
0i
0p!
0z

#305000
1!
09
19!
0B
0H
b10 H!
b10 L!
0N
1U!
1X
1i
0o
1p!
0r!
b11 u
1z

#310000
0!
09!
0U!
0X
0i
0p!
0z

#315000
1!
19
19!
1B
1H
b11 L!
1N
1U!
1X
1i
1o
1p!
1r!
b100 u
1z

#320000
0!
09!
0U!
0X
0i
0p!
0z

#325000
1!
09
19!
0B
0H
b1010 H!
b100 L!
0N
1U!
1X
1i
0o
1p!
0r!
b101 u
1z

#330000
0!
09!
0U!
0X
0i
0p!
0z

#335000
1!
19
19!
1B
1H
b101 L!
1N
1U!
1X
1i
1o
1p!
1r!
b110 u
1z

#340000
0!
09!
0U!
0X
0i
0p!
0z

#345000
1!
09
19!
0B
0H
b101010 H!
b110 L!
0N
1U!
1X
1i
0o
1p!
0r!
b111 u
b0 x
1z

#350000
0!
09!
0U!
0X
0i
0p!
0z

#355000
1!
b0 $"
1-
19
19!
0=
1B
1H
b111 L!
1N
b101 O!
1U!
1X
1i
1o
1p!
1r!
b0 u
b0 w
1z

#360000
0!
09!
0U!
0X
0i
0p!
0z

#365000
1!
b0 #"
0("
b10 0"
b0 1"
19!
0;
1=!
0>
0B
1B!
0C
0H
b10101010 H!
0I
0J
b0 L!
0N
b101 N!
0O
b0 O!
1U!
1X
1i
0p
1p!
0r!
0s!
0t!
0u!
b0 v
b0 y
1z

#370000
0!
09!
0U!
0X
0i
0p!
0z

#375000
1!
1!"
1)"
b111 *"
b0 ."
b1000000000000 6"
19!
b10101010 @!
b10101010 E!
1L
b0 N!
b101 P!
1U!
1W
1X
1i
1p!
1z
1~!

#380000
0!
09!
0U!
0X
0i
0p!
0z

#385000
1!
1,
b0 -"
0.
b0 0"
19!
0:
0=!
0B!
b0 P!
1U!
1X
1i
1m
0n
1p!
0s
b100 x
1z

#390000
0!
09!
0U!
0X
0i
0p!
0z

#395000
1!
b10 $"
0'"
0,
0-
19!
1=
1U!
1X
1i
0m
1p!
b100 w
b100 x
1z

#400000
0!
09!
0U!
0X
0i
0p!
0z

#405000
1!
b10 #"
19!
1>
1B
1H
1N
1U!
1X
1i
1p!
1r!
1u!
b101 x
b100 y
1z

#410000
0!
09!
0U!
0X
0i
0p!
0z

#415000
1!
19!
1U!
1X
1i
1p!
b101 w
1z

#420000
0!
09!
0U!
0X
0i
0p!
0z

#425000
1!
b1 ."
b1 0"
b1 1"
19!
1;
1U!
1X
1i
1p
1p!
1t!
b1 u
b101 y
1z

#430000
0!
09!
0U!
0X
0i
0p!
0z

#435000
1!
b1 +"
b1 -"
09
19!
0B
0H
0N
1U!
1X
1i
0o
1p!
0r!
b10 u
1z

#440000
0!
09!
0U!
0X
0i
0p!
0z

#445000
1!
b10 +"
19!
1U!
1X
1i
1p!
b11 u
b110 x
1z

#450000
0!
09!
0U!
0X
0i
0p!
0z

#455000
1!
b11 +"
b10 ."
19!
1U!
1X
1i
1p!
b0 u
b110 w
1z

#460000
0!
09!
0U!
0X
0i
0p!
0z

#465000
1!
b0 +"
b10 -"
b10 ."
b0 0"
b0 1"
16
19!
0;
1?
1U!
1X
1i
0p
1p!
0t!
b1 v
1w!
b1 x
b110 y
1z

#470000
0!
09!
0U!
0X
0i
0p!
0z

#475000
1!
1'"
19!
1U!
1X
1i
1p!
b10 v
b1 w
1z

#480000
0!
09!
0U!
0X
0i
0p!
0z

#485000
1!
1("
b11 ."
b1 0"
b1 1"
19!
1;
1J
b1 O!
1U!
1X
1i
1p
1p!
1t!
b1 u
b1 y
1z

#490000
0!
09!
0U!
0X
0i
0p!
0z

#495000
1!
0!"
0)"
b101 *"
b11 -"
06
19!
0?
0K!
0L
b1 L!
b1 N!
1U!
0W
1X
1i
1p!
b10 u
0w!
1z
0~!

#500000
0!
09!
0U!
0X
0i
0p!
0z

#505000
1!
19!
b10 L!
b1 P!
1U!
1X
1i
1p!
b11 u
1z

#510000
0!
09!
0U!
0X
0i
0p!
0z

#515000
1!
19!
b11 L!
1U!
1X
1i
1p!
b100 u
1z

#520000
0!
09!
0U!
0X
0i
0p!
0z

#525000
1!
19!
b100 L!
1U!
1X
1i
1p!
b101 u
1z

#530000
0!
09!
0U!
0X
0i
0p!
0z

#535000
1!
19!
b101 L!
1U!
1X
1i
1p!
b110 u
1z

#540000
0!
09!
0U!
0X
0i
0p!
0z

#545000
1!
19!
b110 L!
1U!
1X
1i
1p!
b111 u
1z

#550000
0!
09!
0U!
0X
0i
0p!
0z

#555000
1!
19!
b111 L!
1U!
1X
1i
1p!
b1000 u
1z

#560000
0!
09!
0U!
0X
0i
0p!
0z

#565000
1!
19!
b1000 L!
1U!
1X
1i
1p!
b1001 u
1z

#570000
0!
09!
0U!
0X
0i
0p!
0z

#575000
1!
19!
b1001 L!
1U!
1X
1i
1p!
b1010 u
1z

#580000
0!
09!
0U!
0X
0i
0p!
0z

#585000
1!
19!
b1010 L!
1U!
1X
1i
1p!
b1011 u
b10 x
1z

#590000
0!
09!
0U!
0X
0i
0p!
0z

#595000
1!
19!
b1011 L!
b101 O!
1U!
1X
1i
1p!
b0 u
b10 w
1z

#600000
0!
09!
0U!
0X
0i
0p!
0z

#605000
1!
0("
b0 0"
b0 1"
19!
0;
0J
b0 L!
b101 N!
b111 O!
1U!
1X
1i
0p
1p!
0t!
b10 y
1z

#610000
0!
09!
0U!
0X
0i
0p!
0z

#615000
1!
19!
1>!
1C!
b111 N!
b101 P!
1U!
1X
1i
1p!
1z

#620000
0!
09!
0U!
0X
0i
0p!
0z

#625000
1!
19!
b10101010 <!
b10101010 J!
b111 P!
b10101010 Q!
1S!
1U!
1X
1i
1p!
1z

#630000
0!
09!
0U!
0X
0i
0p!
0z

#635000
1!
19!
1A!
b10 O!
1R!
1U!
1X
1i
1p!
1z

#640000
0!
09!
0U!
0X
0i
0p!
0z

#645000
1!
19!
b10 N!
1U!
1X
1i
1p!
1z

#650000
0!
09!
0U!
0X
0i
0p!
0z

#655000
1!
19!
b1 L!
b10 P!
1U!
1X
1i
1p!
1z

#660000
0!
09!
0U!
0X
0i
0p!
0z

#665000
1!
13
13"
19!
1<
1G!
1K
b10 L!
1U!
1X
1i
1p!
1y!
1z

#670000
0!
09!
0U!
0X
0i
0p!
0z

#675000
1!
1/
12"
03
03"
18
19!
0<
1F!
1G
0G!
0K
b11 L!
1U!
1X
1i
1p!
b1 u
1x!
0y!
1z

#680000
0!
09!
0U!
0X
0i
0p!
0z

#685000
1!
13
13"
19!
1<
1G!
1K
b100 L!
1U!
1X
1i
1p!
1y!
1z

#690000
0!
09!
0U!
0X
0i
0p!
0z

#695000
1!
b10 *
0/
02"
03
03"
08
19!
0<
0F!
0G
0G!
0K
b101 L!
1U!
1X
1i
1p!
b10 t
b10 u
0x!
0y!
1z

#700000
0!
09!
0U!
0X
0i
0p!
0z

#705000
1!
13
13"
19!
1<
1G!
1K
b110 L!
1U!
1X
1i
1p!
1y!
1z

#710000
0!
09!
0U!
0X
0i
0p!
0z

#715000
1!
1/
12"
03
03"
18
19!
0<
1F!
1G
0G!
0K
b111 L!
1U!
1X
1i
1p!
b11 u
1x!
0y!
1z

#720000
0!
09!
0U!
0X
0i
0p!
0z

#725000
1!
13
13"
19!
1<
1G!
1K
b1000 L!
1U!
1X
1i
1p!
1y!
1z

#730000
0!
09!
0U!
0X
0i
0p!
0z

#735000
1!
b1010 *
0/
02"
03
03"
08
19!
0<
0F!
0G
0G!
0K
b1001 L!
1U!
1X
1i
1p!
b1010 t
b100 u
0x!
0y!
1z

#740000
0!
09!
0U!
0X
0i
0p!
0z

#745000
1!
13
13"
19!
1<
1G!
1K
b1010 L!
1U!
1X
1i
1p!
1y!
1z

#750000
0!
09!
0U!
0X
0i
0p!
0z

#755000
1!
1/
12"
03
03"
18
19!
0<
1F!
1G
0G!
0K
b1011 L!
1U!
1X
1i
1p!
b101 u
1x!
0y!
1z

#760000
0!
09!
0U!
0X
0i
0p!
0z

#765000
1!
13
13"
19!
1<
1G!
1K
b1100 L!
1U!
1X
1i
1p!
1y!
1z

#770000
0!
09!
0U!
0X
0i
0p!
0z

#775000
1!
b101010 *
0/
02"
03
03"
08
19!
0<
0F!
0G
0G!
0K
b1101 L!
1U!
1X
1i
1p!
b101010 t
b110 u
0x!
0y!
1z

#780000
0!
09!
0U!
0X
0i
0p!
0z

#785000
1!
13
13"
19!
1<
1G!
1K
b1110 L!
1U!
1X
1i
1p!
1y!
1z

#790000
0!
09!
0U!
0X
0i
0p!
0z

#795000
1!
1/
12"
03
03"
18
19!
0<
1F!
1G
0G!
0K
b1111 L!
1U!
1X
1i
1p!
b111 u
b10 x
1x!
0y!
1z

#800000
0!
09!
0U!
0X
0i
0p!
0z

#805000
1!
13
13"
19!
1<
1G!
1K
b10000 L!
b0 O!
1U!
1X
1i
1p!
b0 x
1y!
1z

#810000
0!
09!
0U!
0X
0i
0p!
0z

#815000
1!
1!"
b0 $"
1)"
b10101010 *
b111 *"
1-
b0 ."
03
03"
19!
0<
0=
0>!
0C!
0G!
0K
1L
b0 L!
b0 N!
1U!
1W
1X
1i
1p!
b10101010 t
b0 u
b0 w
0y!
1z
1~!

#820000
0!
09!
0U!
0X
0i
0p!
0z

#825000
1!
b0 #"
b0 -"
19!
0>
0A!
b0 P!
0R!
0S!
1U!
1X
1i
1p!
0u!
b0 v
b0 y
1z

#830000
0!
09!
0U!
0X
0i
0p!
0z

