Vivado/Serial_bus/Serial_bus.sim/sim_1/behav/xsim/de0_nano_demo_tb.vcd
$date
   Tue Dec  2 13:19:28 2025
$end

$version
  2023.2.2
  $dumpfile ("de0_nano_demo_tb.vcd") 
$end

$timescale
  1ps
$end

$scope module de0_nano_demo_tb $end
$var reg 1 ! CLOCK_50 $end
$var reg 2 " KEY [1:0] $end
$var reg 4 # SW [3:0] $end
$var wire 8 $ LED [7:0] $end
$var wire 1 % GPIO_0_BRIDGE_M_TX $end
$var reg 1 & GPIO_0_BRIDGE_M_RX $end
$var wire 1 ' GPIO_0_BRIDGE_S_TX $end
$var reg 1 ( GPIO_0_BRIDGE_S_RX $end
$var reg 1 ) bridge_s_tx_prev $end
$scope module dut $end
$var wire 1 * CLOCK_50 $end
$var wire 2 + KEY [1:0] $end
$var wire 4 , SW [3:0] $end
$var reg 8 - LED [7:0] $end
$var wire 1 . GPIO_0_BRIDGE_M_RX $end
$var wire 1 % GPIO_0_BRIDGE_M_TX $end
$var wire 1 / GPIO_0_BRIDGE_S_RX $end
$var wire 1 ' GPIO_0_BRIDGE_S_TX $end
$var wire 1 0 clk $end
$var wire 1 1 rstn $end
$var reg 3 2 key0_sync [2:0] $end
$var reg 3 3 key1_sync [2:0] $end
$var reg 4 4 sw_sync [3:0] $end
$var wire 1 5 key0_stable $end
$var wire 1 6 key1_stable $end
$var reg 1 7 key1_prev $end
$var wire 1 8 key1_release $end
$var reg 4 9 demo_state [3:0] $end
$var reg 16 : timeout_counter [15:0] $end
$var reg 8 ; write_data [7:0] $end
$var reg 16 < target_addr [15:0] $end
$var reg 8 = read_data_reg [7:0] $end
$var reg 8 > transaction_count [7:0] $end
$var reg 2 ? last_slave_select [1:0] $end
$var reg 16 @ last_write_addr [15:0] $end
$var reg 8 A m1_dwdata [7:0] $end
$var wire 8 B m1_drdata [7:0] $end
$var reg 16 C m1_daddr [15:0] $end
$var reg 1 D m1_dvalid $end
$var wire 1 E m1_dready $end
$var reg 1 F m1_dmode $end
$var wire 1 G m1_rdata $end
$var wire 1 H m1_wdata $end
$var wire 1 I m1_mode $end
$var wire 1 J m1_mvalid $end
$var wire 1 K m1_svalid $end
$var wire 1 L m1_breq $end
$var wire 1 M m1_bgrant $end
$var wire 1 N m1_ack $end
$var wire 1 O m1_split $end
$var wire 1 P m2_rdata $end
$var wire 1 Q m2_wdata $end
$var wire 1 R m2_mode $end
$var wire 1 S m2_mvalid $end
$var wire 1 T m2_svalid $end
$var wire 1 U m2_breq $end
$var wire 1 V m2_bgrant $end
$var wire 1 W m2_ack $end
$var wire 1 X m2_split $end
$var wire 1 Y s1_rdata $end
$var wire 1 Z s1_wdata $end
$var wire 1 [ s1_mode $end
$var wire 1 \ s1_mvalid $end
$var wire 1 ] s1_svalid $end
$var wire 1 ^ s1_ready $end
$var wire 1 _ s2_rdata $end
$var wire 1 ` s2_wdata $end
$var wire 1 a s2_mode $end
$var wire 1 b s2_mvalid $end
$var wire 1 c s2_svalid $end
$var wire 1 d s2_ready $end
$var wire 1 e s3_rdata $end
$var wire 1 f s3_wdata $end
$var wire 1 g s3_mode $end
$var wire 1 h s3_mvalid $end
$var wire 1 i s3_svalid $end
$var wire 1 j s3_ready $end
$var wire 1 k s3_split $end
$var wire 1 l split_grant $end
$scope module master1_port $end
$var wire 1 0 clk $end
$var wire 1 1 rstn $end
$var wire 8 m dwdata [7:0] $end
$var wire 8 B drdata [7:0] $end
$var wire 16 n daddr [15:0] $end
$var wire 1 o dvalid $end
$var wire 1 E dready $end
$var wire 1 p dmode $end
$var wire 1 G mrdata $end
$var reg 1 q mwdata $end
$var wire 1 I mmode $end
$var reg 1 r mvalid $end
$var wire 1 K svalid $end
$var wire 1 L mbreq $end
$var wire 1 M mbgrant $end
$var wire 1 O msplit $end
$var wire 1 N ack $end
$var reg 8 s wdata [7:0] $end
$var reg 16 t addr [15:0] $end
$var reg 1 u mode $end
$var reg 8 v rdata [7:0] $end
$var reg 8 w counter [7:0] $end
$var reg 8 x timeout [7:0] $end
$var reg 3 y state [2:0] $end
$var reg 3 z next_state [2:0] $end
$var reg 3 { prev_state [2:0] $end
$upscope $end
$scope module master2_bridge $end
$var wire 1 0 clk $end
$var wire 1 1 rstn $end
$var wire 1 P mrdata $end
$var wire 1 Q mwdata $end
$var wire 1 R mmode $end
$var wire 1 S mvalid $end
$var wire 1 T svalid $end
$var wire 1 U mbreq $end
$var wire 1 V mbgrant $end
$var wire 1 X msplit $end
$var wire 1 W ack $end
$var wire 1 % u_tx $end
$var wire 1 . u_rx $end
$var reg 8 | dwdata [7:0] $end
$var wire 8 } drdata [7:0] $end
$var wire 16 ~ daddr [15:0] $end
$var reg 1 !! dvalid $end
$var wire 1 "! dready $end
$var reg 1 #! dmode $end
$var reg 1 $! fifo_enq $end
$var reg 1 %! fifo_deq $end
$var reg 21 &! fifo_din [20:0] $end
$var wire 21 '! fifo_dout [20:0] $end
$var wire 1 (! fifo_empty $end
$var reg 8 )! u_din [7:0] $end
$var reg 1 *! u_en $end
$var wire 1 +! u_tx_busy $end
$var wire 1 ,! u_rx_ready $end
$var wire 21 -! u_dout [20:0] $end
$var reg 12 .! bb_addr [11:0] $end
$var reg 1 /! expect_rdata $end
$var reg 1 0! prev_u_ready $end
$var reg 1 1! prev_m_ready $end
$scope module master $end
$var wire 1 0 clk $end
$var wire 1 1 rstn $end
$var wire 8 2! dwdata [7:0] $end
$var wire 8 } drdata [7:0] $end
$var wire 16 ~ daddr [15:0] $end
$var wire 1 3! dvalid $end
$var wire 1 "! dready $end
$var wire 1 4! dmode $end
$var wire 1 P mrdata $end
$var reg 1 5! mwdata $end
$var wire 1 R mmode $end
$var reg 1 6! mvalid $end
$var wire 1 T svalid $end
$var wire 1 U mbreq $end
$var wire 1 V mbgrant $end
$var wire 1 X msplit $end
$var wire 1 W ack $end
$var reg 8 7! wdata [7:0] $end
$var reg 16 8! addr [15:0] $end
$var reg 1 9! mode $end
$var reg 8 :! rdata [7:0] $end
$var reg 8 ;! counter [7:0] $end
$var reg 8 <! timeout [7:0] $end
$var reg 3 =! state [2:0] $end
$var reg 3 >! next_state [2:0] $end
$var reg 3 ?! prev_state [2:0] $end
$upscope $end
$scope module fifo_queue $end
$var wire 1 0 clk $end
$var wire 1 1 rstn $end
$var wire 1 @! enq $end
$var wire 1 A! deq $end
$var wire 21 B! data_in [20:0] $end
$var wire 21 '! data_out [20:0] $end
$var wire 1 (! empty $end
$var reg 3 C! rp [2:0] $end
$var reg 3 D! wp [2:0] $end
$var wire 1 E! full $end
$upscope $end
$scope module uart_module $end
$var wire 8 F! data_input [7:0] $end
$var wire 1 G! data_en $end
$var wire 1 0 clk $end
$var wire 1 1 rstn $end
$var wire 1 % tx $end
$var wire 1 +! tx_busy $end
$var wire 1 . rx $end
$var wire 1 ,! ready $end
$var wire 21 -! data_output [20:0] $end
$scope module transmitter $end
$var wire 8 F! data_in [7:0] $end
$var wire 1 G! data_en $end
$var wire 1 0 clk $end
$var wire 1 1 rstn $end
$var reg 1 H! tx $end
$var wire 1 +! tx_busy $end
$var reg 2 I! state [1:0] $end
$var reg 8 J! data [7:0] $end
$var reg 3 K! c_bits [2:0] $end
$var reg 13 L! c_clocks [12:0] $end
$upscope $end
$scope module receiver $end
$var wire 1 0 clk $end
$var wire 1 1 rstn $end
$var wire 1 . rx $end
$var reg 1 M! ready $end
$var wire 21 -! data_out [20:0] $end
$var reg 2 N! state [1:0] $end
$var reg 5 O! c_bits [4:0] $end
$var reg 13 P! c_clocks [12:0] $end
$var reg 21 Q! temp_data [20:0] $end
$var reg 1 R! rx_sync $end
$upscope $end
$upscope $end
$scope module addr_convert_module $end
$var wire 12 S! bb_addr [11:0] $end
$var wire 16 ~ bus_addr [15:0] $end
$upscope $end
$upscope $end
$scope module bus_inst $end
$var wire 1 0 clk $end
$var wire 1 1 rstn $end
$var wire 1 G m1_rdata $end
$var wire 1 H m1_wdata $end
$var wire 1 I m1_mode $end
$var wire 1 J m1_mvalid $end
$var wire 1 K m1_svalid $end
$var wire 1 L m1_breq $end
$var wire 1 M m1_bgrant $end
$var wire 1 N m1_ack $end
$var wire 1 O m1_split $end
$var wire 1 P m2_rdata $end
$var wire 1 Q m2_wdata $end
$var wire 1 R m2_mode $end
$var wire 1 S m2_mvalid $end
$var wire 1 T m2_svalid $end
$var wire 1 U m2_breq $end
$var wire 1 V m2_bgrant $end
$var wire 1 W m2_ack $end
$var wire 1 X m2_split $end
$var wire 1 Y s1_rdata $end
$var wire 1 Z s1_wdata $end
$var wire 1 [ s1_mode $end
$var wire 1 \ s1_mvalid $end
$var wire 1 ] s1_svalid $end
$var wire 1 ^ s1_ready $end
$var wire 1 _ s2_rdata $end
$var wire 1 ` s2_wdata $end
$var wire 1 a s2_mode $end
$var wire 1 b s2_mvalid $end
$var wire 1 c s2_svalid $end
$var wire 1 d s2_ready $end
$var wire 1 e s3_rdata $end
$var wire 1 f s3_wdata $end
$var wire 1 g s3_mode $end
$var wire 1 h s3_mvalid $end
$var wire 1 i s3_svalid $end
$var wire 1 j s3_ready $end
$var wire 1 k s3_split $end
$var wire 1 l split_grant $end
$var wire 1 T! m_wdata $end
$var wire 1 U! m_mode $end
$var wire 1 V! m_mvalid $end
$var wire 1 W! m_select $end
$var wire 2 X! s_select [1:0] $end
$var wire 1 Y! m_ack $end
$var wire 1 Z! s_rdata $end
$var wire 1 [! s_svalid $end
$var wire 1 \! s_split $end
$scope module bus_arbiter $end
$var wire 1 0 clk $end
$var wire 1 1 rstn $end
$var wire 1 L breq1 $end
$var wire 1 U breq2 $end
$var wire 1 ^ sready1 $end
$var wire 1 d sready2 $end
$var wire 1 j sreadysp $end
$var wire 1 \! ssplit $end
$var wire 1 M bgrant1 $end
$var wire 1 V bgrant2 $end
$var wire 1 W! msel $end
$var reg 1 ]! msplit1 $end
$var reg 1 ^! msplit2 $end
$var reg 1 _! split_grant $end
$var wire 1 `! sready $end
$var wire 1 a! sready_nsplit $end
$var reg 2 b! split_owner [1:0] $end
$var reg 3 c! state [2:0] $end
$var reg 3 d! next_state [2:0] $end
$upscope $end
$scope module decoder $end
$var wire 1 0 clk $end
$var wire 1 1 rstn $end
$var wire 1 T! mwdata $end
$var wire 1 V! mvalid $end
$var wire 1 \! ssplit $end
$var wire 1 l split_grant $end
$var wire 1 ^ sready1 $end
$var wire 1 d sready2 $end
$var wire 1 j sready3 $end
$var wire 1 \ mvalid1 $end
$var wire 1 b mvalid2 $end
$var wire 1 h mvalid3 $end
$var reg 2 e! ssel [1:0] $end
$var wire 1 Y! ack $end
$var reg 4 f! slave_addr [3:0] $end
$var reg 1 g! slave_en $end
$var wire 1 h! mvalid_out $end
$var wire 1 i! slave_addr_valid $end
$var wire 3 j! sready [2:0] $end
$var reg 4 k! counter [3:0] $end
$var reg 4 l! split_slave_addr [3:0] $end
$var reg 2 m! state [1:0] $end
$var reg 2 n! next_state [1:0] $end
$scope module mvalid_decoder $end
$var wire 2 e! sel [1:0] $end
$var wire 1 h! en $end
$var wire 1 \ out1 $end
$var wire 1 b out2 $end
$var wire 1 h out3 $end
$upscope $end
$upscope $end
$scope module wdata_mux $end
$var wire 1 H in0 [0:0] $end
$var wire 1 Q in1 [0:0] $end
$var wire 1 W! sel $end
$var wire 1 T! out [0:0] $end
$upscope $end
$scope module mctrl_mux $end
$var wire 2 o! in0 [1:0] $end
$var wire 2 p! in1 [1:0] $end
$var wire 1 W! sel $end
$var wire 2 q! out [1:0] $end
$upscope $end
$scope module rdata_mux $end
$var wire 1 Y in0 [0:0] $end
$var wire 1 _ in1 [0:0] $end
$var wire 1 e in2 [0:0] $end
$var wire 2 X! sel [1:0] $end
$var reg 1 r! out [0:0] $end
$upscope $end
$scope module rctrl_mux $end
$var wire 1 ] in0 [0:0] $end
$var wire 1 c in1 [0:0] $end
$var wire 1 i in2 [0:0] $end
$var wire 2 X! sel [1:0] $end
$var reg 1 s! out [0:0] $end
$upscope $end
$upscope $end
$scope module slave1_inst $end
$var wire 1 0 clk $end
$var wire 1 1 rstn $end
$var wire 1 Z swdata $end
$var wire 1 Y srdata $end
$var wire 1 [ smode $end
$var wire 1 \ mvalid $end
$var wire 1 t! split_grant $end
$var wire 1 ] svalid $end
$var wire 1 ^ sready $end
$var wire 1 u! ssplit $end
$var wire 8 v! smemrdata [7:0] $end
$var wire 1 w! smemwen $end
$var wire 1 x! smemren $end
$var wire 11 y! smemaddr [10:0] $end
$var wire 8 z! smemwdata [7:0] $end
$var wire 1 {! rvalid $end
$scope module sp $end
$var wire 1 0 clk $end
$var wire 1 1 rstn $end
$var wire 8 v! smemrdata [7:0] $end
$var wire 1 {! rvalid $end
$var reg 1 |! smemwen $end
$var reg 1 }! smemren $end
$var reg 11 ~! smemaddr [10:0] $end
$var reg 8 !" smemwdata [7:0] $end
$var wire 1 Z swdata $end
$var reg 1 "" srdata $end
$var wire 1 [ smode $end
$var wire 1 \ mvalid $end
$var wire 1 t! split_grant $end
$var reg 1 #" svalid $end
$var wire 1 ^ sready $end
$var wire 1 u! ssplit $end
$var reg 8 $" wdata [7:0] $end
$var reg 11 %" addr [10:0] $end
$var wire 8 &" rdata [7:0] $end
$var reg 1 '" mode $end
$var reg 8 (" counter [7:0] $end
$var reg 4 )" rcounter [3:0] $end
$var reg 3 *" state [2:0] $end
$var reg 3 +" next_state [2:0] $end
$var reg 3 ," prev_state [2:0] $end
$upscope $end
$scope module sm $end
$var wire 1 0 clk $end
$var wire 1 1 rstn $end
$var wire 1 w! wen $end
$var wire 1 x! ren $end
$var wire 11 y! addr [10:0] $end
$var wire 8 z! wdata [7:0] $end
$var reg 8 -" rdata [7:0] $end
$var reg 1 ." rvalid $end
$var reg 1 /" ren_prev $end
$var integer 32 0" i [31:0] $end
$upscope $end
$upscope $end
$scope module slave2_inst $end
$var wire 1 0 clk $end
$var wire 1 1 rstn $end
$var wire 1 ` swdata $end
$var wire 1 _ srdata $end
$var wire 1 a smode $end
$var wire 1 b mvalid $end
$var wire 1 t! split_grant $end
$var wire 1 c svalid $end
$var wire 1 d sready $end
$var wire 1 1" ssplit $end
$var wire 8 2" smemrdata [7:0] $end
$var wire 1 3" smemwen $end
$var wire 1 4" smemren $end
$var wire 12 5" smemaddr [11:0] $end
$var wire 8 6" smemwdata [7:0] $end
$var wire 1 7" rvalid $end
$scope module sp $end
$var wire 1 0 clk $end
$var wire 1 1 rstn $end
$var wire 8 2" smemrdata [7:0] $end
$var wire 1 7" rvalid $end
$var reg 1 8" smemwen $end
$var reg 1 9" smemren $end
$var reg 12 :" smemaddr [11:0] $end
$var reg 8 ;" smemwdata [7:0] $end
$var wire 1 ` swdata $end
$var reg 1 <" srdata $end
$var wire 1 a smode $end
$var wire 1 b mvalid $end
$var wire 1 t! split_grant $end
$var reg 1 =" svalid $end
$var wire 1 d sready $end
$var wire 1 1" ssplit $end
$var reg 8 >" wdata [7:0] $end
$var reg 12 ?" addr [11:0] $end
$var wire 8 @" rdata [7:0] $end
$var reg 1 A" mode $end
$var reg 8 B" counter [7:0] $end
$var reg 4 C" rcounter [3:0] $end
$var reg 3 D" state [2:0] $end
$var reg 3 E" next_state [2:0] $end
$var reg 3 F" prev_state [2:0] $end
$upscope $end
$scope module sm $end
$var wire 1 0 clk $end
$var wire 1 1 rstn $end
$var wire 1 3" wen $end
$var wire 1 4" ren $end
$var wire 12 5" addr [11:0] $end
$var wire 8 6" wdata [7:0] $end
$var reg 8 G" rdata [7:0] $end
$var reg 1 H" rvalid $end
$var reg 1 I" ren_prev $end
$var integer 32 J" i [31:0] $end
$upscope $end
$upscope $end
$scope module slave3_bridge $end
$var wire 1 0 clk $end
$var wire 1 1 rstn $end
$var wire 1 f swdata $end
$var wire 1 g smode $end
$var wire 1 h mvalid $end
$var wire 1 l split_grant $end
$var wire 1 e srdata $end
$var wire 1 i svalid $end
$var wire 1 j sready $end
$var wire 1 k ssplit $end
$var wire 1 ' u_tx $end
$var wire 1 / u_rx $end
$var wire 1 K" spready $end
$var wire 8 L" smemrdata [7:0] $end
$var wire 1 M" smemwen $end
$var wire 1 N" smemren $end
$var wire 12 O" smemaddr [11:0] $end
$var wire 8 P" smemwdata [7:0] $end
$var wire 1 Q" rvalid $end
$var reg 21 R" u_din [20:0] $end
$var reg 1 S" u_en $end
$var wire 1 T" u_tx_busy $end
$var wire 1 U" u_rx_ready $end
$var wire 8 V" u_dout [7:0] $end
$var reg 8 W" latched_rdata [7:0] $end
$var reg 1 X" rdata_received $end
$var reg 1 Y" prev_u_rx_ready $end
$var reg 2 Z" state [1:0] $end
$var reg 2 [" next_state [1:0] $end
$scope module slave $end
$var wire 1 0 clk $end
$var wire 1 1 rstn $end
$var wire 8 L" smemrdata [7:0] $end
$var wire 1 Q" rvalid $end
$var reg 1 \" smemwen $end
$var reg 1 ]" smemren $end
$var reg 12 ^" smemaddr [11:0] $end
$var reg 8 _" smemwdata [7:0] $end
$var wire 1 f swdata $end
$var reg 1 `" srdata $end
$var wire 1 g smode $end
$var wire 1 h mvalid $end
$var wire 1 l split_grant $end
$var reg 1 a" svalid $end
$var wire 1 K" sready $end
$var wire 1 k ssplit $end
$var reg 8 b" wdata [7:0] $end
$var reg 12 c" addr [11:0] $end
$var wire 8 d" rdata [7:0] $end
$var reg 1 e" mode $end
$var reg 8 f" counter [7:0] $end
$var reg 4 g" rcounter [3:0] $end
$var reg 3 h" state [2:0] $end
$var reg 3 i" next_state [2:0] $end
$var reg 3 j" prev_state [2:0] $end
$upscope $end
$scope module uart_module $end
$var wire 21 k" data_input [20:0] $end
$var wire 1 l" data_en $end
$var wire 1 0 clk $end
$var wire 1 1 rstn $end
$var wire 1 ' tx $end
$var wire 1 T" tx_busy $end
$var wire 1 / rx $end
$var wire 1 U" ready $end
$var wire 8 V" data_output [7:0] $end
$scope module transmitter $end
$var wire 21 k" data_in [20:0] $end
$var wire 1 l" data_en $end
$var wire 1 0 clk $end
$var wire 1 1 rstn $end
$var reg 1 m" tx $end
$var wire 1 T" tx_busy $end
$var reg 2 n" state [1:0] $end
$var reg 21 o" data [20:0] $end
$var reg 5 p" c_bits [4:0] $end
$var reg 13 q" c_clocks [12:0] $end
$upscope $end
$scope module receiver $end
$var wire 1 0 clk $end
$var wire 1 1 rstn $end
$var wire 1 / rx $end
$var reg 1 r" ready $end
$var wire 8 V" data_out [7:0] $end
$var reg 2 s" state [1:0] $end
$var reg 3 t" c_bits [2:0] $end
$var reg 13 u" c_clocks [12:0] $end
$var reg 8 v" temp_data [7:0] $end
$var reg 1 w" rx_sync $end
$upscope $end
$upscope $end
$upscope $end
$upscope $end
$scope task press_key $end
$var integer 32 x" key_num [31:0] $end
$upscope $end
$scope task wait_for_idle $end
$upscope $end
$upscope $end
$enddefinitions $end

#0
$dumpvars
0!
x!!
bx !"
b11 "
x"!
x""
b0 #
x#!
x#"
bx $
x$!
bx $"
x%
x%!
bx %"
1&
bx &!
bx &"
x'
bx '!
x'"
1(
x(!
bx ("
x)
bx )!
bx )"
0*
x*!
bx *"
b11 +
x+!
b0 +"
b0 ,
x,!
bx ,"
bx -
bx -!
bx -"
1.
bx .!
x."
1/
x/!
x/"
00
x0!
b100000000000 0"
x1
x1!
x1"
bx 2
bx 2!
bx 2"
bx 3
x3!
x3"
bx 4
x4!
x4"
z5
x5!
bx 5"
x6
x6!
bx 6"
x7
bx 7!
x7"
x8
bx 8!
x8"
bx 9
x9!
x9"
bx :
bx :!
bx :"
bx ;
bx ;!
bx ;"
bx <
bx <!
x<"
bx =
bx =!
x="
bx >
bx >!
bx >"
bx ?
bx ?!
bx ?"
bx @
x@!
bx @"
bx A
xA!
xA"
bx B
bx B!
bx B"
bx C
bx C!
bx C"
xD
bx D!
bx D"
xE
xE!
b0 E"
xF
bx F!
bx F"
xG
xG!
bx G"
xH
xH!
xH"
xI
bx I!
xI"
xJ
bx J!
b1000000000000 J"
xK
bx K!
xK"
xL
bx L!
bx L"
xM
xM!
xM"
xN
bx N!
xN"
xO
bx O!
bx O"
xP
bx P!
bx P"
xQ
bx Q!
xQ"
xR
xR!
bx R"
xS
bx S!
xS"
xT
xT!
xT"
xU
xU!
xU"
xV
xV!
bx V"
xW
xW!
bx W"
xX
bx X!
xX"
xY
xY!
xY"
xZ
xZ!
bx Z"
x[
x[!
bx ["
x\
x\!
x\"
x]
x]!
x]"
x^
x^!
bx ^"
x_
x_!
bx _"
x`
x`!
x`"
xa
xa!
xa"
xb
bx b!
bx b"
xc
bx c!
bx c"
xd
bx d!
bx d"
xe
bx e!
xe"
xf
bx f!
bx f"
xg
xg!
bx g"
xh
xh!
bx h"
xi
xi!
bx i"
xj
bx j!
bx j"
xk
bx k!
bx k"
xl
bx l!
xl"
bx m
bx m!
xm"
bx n
bx n!
bx n"
xo
bx o!
bx o"
xp
bx p!
bx p"
xq
bx q!
bx q"
xr
xr!
xr"
bx s
xs!
bx s"
bx t
0t!
bx t"
xu
xu!
bx u"
bx v
bx v!
bx v"
bx w
xw!
xw"
bx x
xx!
bx x"
bx y
bx y!
bx z
bx z!
bx {
x{!
bx |
x|!
bx }
x}!
b0x0xxxxxxxxxxx ~
bx ~!
$end

#10000
1!
0!!
b11111111 $
0$!
0%!
1*
0*!
b0 *"
0+!
b0x +"
b11111111 -
0."
10
01"
bx1 2
bx1 3
03!
b0 4
07"
b0 9
bx00 ;
b0xxxx00000000 <
b0 >!
0@!
0A!
b0 D"
b0x E"
0G!
0H"
b0 I!
b0 N!
1R!
0S"
0T"
b0 ["
1^
1a!
1d
b0 d!
bx11 j!
0l"
b0 n!
b0 n"
b0 s"
0u!
1w"
0{!

#20000
0!
0*
00

#30000
1!
1"!
0#"
b0xx $
1%
1'
bx ("
1*
b0x *"
b0 +"
b0 ,"
b0xx -
10
bx11 2
bx11 3
03"
04"
08"
09"
b0 :
b0 =!
0="
bx B"
0D
b0x D"
b0 E"
b0 F"
1H!
0K
b0 L"
0M
0N
0Q"
0T
0U
0V
0W
0W!
0Y!
b0 Z"
0[!
bx ["
0]
x^
xa!
0c
b0 c!
xd
b0 d"
b0 i"
bx j!
b0 m!
1m"
bx n!
0o
0s!
0w!
0x!
b0 z
0|!
0}!

#40000
0!
0*
00

#50000
1!
1)
1*
b0 *"
b0x ,"
0/"
10
11
11!
b111 2
b111 3
16
06!
b0 ;!
b0 <!
b0 ?!
b0 D"
1E
b0x F"
0I"
1K"
0L
bx L"
xN
0S
xW
b0 W"
0X"
xY!
bx Z"
b0 ["
0\
0\!
1^
1a!
0b
1d
bx d"
0g!
0h
0h!
b0 h"
bx11 j!
0k
b0 k!
bx m!
b0 n!
bx0 p!
b0 y

#60000
0!
0*
00

#70000
1!
bx ("
1*
b0 ,"
10
17
08
bx B"
b0 F"
0J
b0 L"
0M"
0N
0N"
0V!
0W
0Y!
b0 Z"
b0 ["
0\"
0]"
1`!
0a"
b0 d"
bx f"
0i
1j
b111 j!
b0 j"
b0 m!
bx n!
bx0 o!
bx0 q!
0r
b0 w
b0 x
b0 {

#80000
0!
0*
00

#90000
1!
bx ("
1*
10
bx B"
xN
xW
xY!
bx f"
bx m!
b0 n!

#100000
0!
0*
00

#110000
1!
bx ("
1*
10
bx B"
0N
0W
0Y!
bx f"
b0 m!
bx n!

#120000
0!
0*
00

#130000
1!
bx ("
1*
10
bx B"
xN
xW
xY!
bx f"
bx m!
b0 n!

#140000
0!
0*
00

#150000
1!
bx ("
1*
10
bx B"
0N
0W
0Y!
bx f"
b0 m!
bx n!

#160000
0!
0*
00

#170000
1!
bx ("
1*
10
bx B"
xN
xW
xY!
bx f"
bx m!
b0 n!

#180000
0!
0*
00

#190000
1!
b10 "
bx ("
1*
b10 +
10
b110 2
bx B"
0N
0W
0Y!
bx f"
b0 m!
bx n!
b0 x"

#200000
0!
0*
00

#210000
1!
bx ("
1*
10
b100 2
bx B"
xN
xW
xY!
bx f"
bx m!
b0 n!

#220000
0!
0*
00

#230000
1!
bx ("
1*
0,!
b0 -!
10
01
b0 2
bx B"
b0 J!
b0 K!
b0 L!
0M!
0N
b0 O!
b0 P!
b0 Q!
0U"
b0 V"
0W
0Y!
bx f"
b0 m!
bx n!
b0 o"
b0 p"
b0 q"
0r"
b0 t"
b0 u"
b0 v"

#240000
0!
0*
00

#250000
1!
b0 !"
0""
0#!
b0 $
b0 $"
b0 %"
b0 &!
0'"
1(!
b0 ("
b0 )!
b0 )"
1*
b0 -
b0 .!
0/!
10
00!
01!
b0 2!
04!
05!
b0 5"
b0 6"
b0 7!
b0 8!
09!
b0 :!
b0 :"
b0 ;
b0 ;"
b0 <
0<"
b0 =
b0 >
b0 >"
b0 ?
b0 ?"
b0 @
b0 A
0A"
b0 B
b0 B!
b0 B"
b0 C
b0 C!
b0 C"
b0 D!
0E!
0F
b0 F!
0G
0H
0I
0O
b0 O"
0P
b0 P"
0Q
0R
b0 R"
b0 S!
0T!
0U!
0X
b0 X!
0Y
0Y"
0Z
0Z!
0[
0]!
0^!
b0 ^"
0_
0_!
b0 _"
0`
0`"
0a
b0 b!
b0 b"
b0 c"
0e
b0 e!
0e"
0f
b0 f!
b0 f"
0g
b0 g"
1i!
b0 k"
0l
b0 l!
b0 m
b0 n
b0 n!
b0 o!
0p
b0 p!
0q
b0 q!
0r!
b0 s
b0 t
0u
b0 v
b0 y!
b0 z!
b0 |
b0 }
b0 ~
b0 ~!

