Serial/sim/master2_slave3_tb.vcd
$date
   Tue Oct 14 14:45:32 2025
$end
$version
  2022.2
$end
$timescale
  1ps
$end
$scope module master2_slave3_tb $end
$var reg 1 ! clk $end
$var reg 1 " rstn $end
$var reg 8 # d1_wdata [7:0] $end
$var wire 8 $ d1_rdata [7:0] $end
$var reg 16 % d1_addr [15:0] $end
$var reg 1 & d1_valid $end
$var wire 1 ' d1_ready $end
$var reg 1 ( d1_mode $end
$var reg 8 ) d2_wdata [7:0] $end
$var wire 8 * d2_rdata [7:0] $end
$var reg 16 + d2_addr [15:0] $end
$var reg 1 , d2_valid $end
$var wire 1 - d2_ready $end
$var reg 1 . d2_mode $end
$var wire 1 / m1_rdata $end
$var wire 1 0 m1_wdata $end
$var wire 1 1 m1_mode $end
$var wire 1 2 m1_mvalid $end
$var wire 1 3 m1_svalid $end
$var wire 1 4 m1_breq $end
$var wire 1 5 m1_bgrant $end
$var wire 1 6 m1_ack $end
$var wire 1 7 m1_split $end
$var wire 1 8 m2_rdata $end
$var wire 1 9 m2_wdata $end
$var wire 1 : m2_mode $end
$var wire 1 ; m2_mvalid $end
$var wire 1 < m2_svalid $end
$var wire 1 = m2_breq $end
$var wire 1 > m2_bgrant $end
$var wire 1 ? m2_ack $end
$var wire 1 @ m2_split $end
$var wire 1 A s1_rdata $end
$var wire 1 B s1_wdata $end
$var wire 1 C s1_mode $end
$var wire 1 D s1_mvalid $end
$var wire 1 E s1_svalid $end
$var wire 1 F s1_ready $end
$var wire 1 G s2_rdata $end
$var wire 1 H s2_wdata $end
$var wire 1 I s2_mode $end
$var wire 1 J s2_mvalid $end
$var wire 1 K s2_svalid $end
$var wire 1 L s2_ready $end
$var wire 1 M s3_rdata $end
$var wire 1 N s3_wdata $end
$var wire 1 O s3_mode $end
$var wire 1 P s3_mvalid $end
$var wire 1 Q s3_svalid $end
$var wire 1 R s3_ready $end
$var wire 1 S s3_split $end
$var wire 1 T split_grant $end
$var integer 32 U i [31:0] $end
$var reg 16 V rand_addr1 [15:0] $end
$var reg 16 W rand_addr2 [15:0] $end
$var reg 16 X rand_addr3 [15:0] $end
$var reg 8 Y rand_data1 [7:0] $end
$var reg 8 Z rand_data2 [7:0] $end
$var reg 8 [ slave_mem_data1 [7:0] $end
$var reg 8 \ slave_mem_data2 [7:0] $end
$var reg 2 ] slave_id1 [1:0] $end
$var reg 2 ^ slave_id2 [1:0] $end
$var reg 1 _ m1_accepted $end
$var reg 1 ` m2_accepted $end
$var reg 8 a d1_rdata_before [7:0] $end
$var reg 8 b d2_rdata_before [7:0] $end
$var wire 1 c s_ready $end
$scope module master1 $end
$var wire 1 d clk $end
$var wire 1 e rstn $end
$var wire 8 f dwdata [7:0] $end
$var wire 8 $ drdata [7:0] $end
$var wire 16 g daddr [15:0] $end
$var wire 1 h dvalid $end
$var wire 1 ' dready $end
$var wire 1 i dmode $end
$var wire 1 / mrdata $end
$var reg 1 j mwdata $end
$var wire 1 1 mmode $end
$var reg 1 k mvalid $end
$var wire 1 3 svalid $end
$var wire 1 4 mbreq $end
$var wire 1 5 mbgrant $end
$var wire 1 7 msplit $end
$var wire 1 6 ack $end
$var reg 8 l wdata [7:0] $end
$var reg 16 m addr [15:0] $end
$var reg 1 n mode $end
$var reg 8 o rdata [7:0] $end
$var reg 8 p counter [7:0] $end
$var reg 8 q timeout [7:0] $end
$var reg 3 r state [2:0] $end
$var reg 3 s next_state [2:0] $end
$upscope $end
$scope module master2 $end
$var wire 1 t clk $end
$var wire 1 u rstn $end
$var wire 8 v dwdata [7:0] $end
$var wire 8 * drdata [7:0] $end
$var wire 16 w daddr [15:0] $end
$var wire 1 x dvalid $end
$var wire 1 - dready $end
$var wire 1 y dmode $end
$var wire 1 8 mrdata $end
$var reg 1 z mwdata $end
$var wire 1 : mmode $end
$var reg 1 { mvalid $end
$var wire 1 < svalid $end
$var wire 1 = mbreq $end
$var wire 1 > mbgrant $end
$var wire 1 @ msplit $end
$var wire 1 ? ack $end
$var reg 8 | wdata [7:0] $end
$var reg 16 } addr [15:0] $end
$var reg 1 ~ mode $end
$var reg 8 !! rdata [7:0] $end
$var reg 8 "! counter [7:0] $end
$var reg 8 #! timeout [7:0] $end
$var reg 3 $! state [2:0] $end
$var reg 3 %! next_state [2:0] $end
$upscope $end
$scope module slave1 $end
$var wire 1 &! clk $end
$var wire 1 '! rstn $end
$var wire 1 B swdata $end
$var wire 1 A srdata $end
$var wire 1 C smode $end
$var wire 1 D mvalid $end
$var wire 1 (! split_grant $end
$var wire 1 E svalid $end
$var wire 1 F sready $end
$var wire 1 )! ssplit $end
$var wire 8 *! smemrdata [7:0] $end
$var wire 1 +! smemwen $end
$var wire 1 ,! smemren $end
$var wire 12 -! smemaddr [11:0] $end
$var wire 8 .! smemwdata [7:0] $end
$var wire 1 /! rvalid $end
$scope module sp $end
$var wire 1 &! clk $end
$var wire 1 '! rstn $end
$var wire 8 *! smemrdata [7:0] $end
$var wire 1 /! rvalid $end
$var reg 1 0! smemwen $end
$var reg 1 1! smemren $end
$var reg 12 2! smemaddr [11:0] $end
$var reg 8 3! smemwdata [7:0] $end
$var wire 1 B swdata $end
$var reg 1 4! srdata $end
$var wire 1 C smode $end
$var wire 1 D mvalid $end
$var wire 1 (! split_grant $end
$var reg 1 5! svalid $end
$var wire 1 F sready $end
$var wire 1 )! ssplit $end
$var reg 8 6! wdata [7:0] $end
$var reg 12 7! addr [11:0] $end
$var wire 8 8! rdata [7:0] $end
$var reg 1 9! mode $end
$var reg 8 :! counter [7:0] $end
$var reg 4 ;! rcounter [3:0] $end
$var reg 3 <! state [2:0] $end
$var reg 3 =! next_state [2:0] $end
$upscope $end
$scope module sm $end
$var wire 1 &! clk $end
$var wire 1 '! rstn $end
$var wire 1 +! wen $end
$var wire 1 ,! ren $end
$var wire 12 -! addr [11:0] $end
$var wire 8 .! wdata [7:0] $end
$var reg 8 >! rdata [7:0] $end
$var reg 1 ?! rvalid $end
$var reg 1 @! ren_prev $end
$var integer 32 A! i [31:0] $end
$upscope $end
$upscope $end
$scope module slave2 $end
$var wire 1 B! clk $end
$var wire 1 C! rstn $end
$var wire 1 H swdata $end
$var wire 1 G srdata $end
$var wire 1 I smode $end
$var wire 1 J mvalid $end
$var wire 1 D! split_grant $end
$var wire 1 K svalid $end
$var wire 1 L sready $end
$var wire 1 E! ssplit $end
$var wire 8 F! smemrdata [7:0] $end
$var wire 1 G! smemwen $end
$var wire 1 H! smemren $end
$var wire 12 I! smemaddr [11:0] $end
$var wire 8 J! smemwdata [7:0] $end
$var wire 1 K! rvalid $end
$scope module sp $end
$var wire 1 B! clk $end
$var wire 1 C! rstn $end
$var wire 8 F! smemrdata [7:0] $end
$var wire 1 K! rvalid $end
$var reg 1 L! smemwen $end
$var reg 1 M! smemren $end
$var reg 12 N! smemaddr [11:0] $end
$var reg 8 O! smemwdata [7:0] $end
$var wire 1 H swdata $end
$var reg 1 P! srdata $end
$var wire 1 I smode $end
$var wire 1 J mvalid $end
$var wire 1 D! split_grant $end
$var reg 1 Q! svalid $end
$var wire 1 L sready $end
$var wire 1 E! ssplit $end
$var reg 8 R! wdata [7:0] $end
$var reg 12 S! addr [11:0] $end
$var wire 8 T! rdata [7:0] $end
$var reg 1 U! mode $end
$var reg 8 V! counter [7:0] $end
$var reg 4 W! rcounter [3:0] $end
$var reg 3 X! state [2:0] $end
$var reg 3 Y! next_state [2:0] $end
$upscope $end
$scope module sm $end
$var wire 1 B! clk $end
$var wire 1 C! rstn $end
$var wire 1 G! wen $end
$var wire 1 H! ren $end
$var wire 12 I! addr [11:0] $end
$var wire 8 J! wdata [7:0] $end
$var reg 8 Z! rdata [7:0] $end
$var reg 1 [! rvalid $end
$var reg 1 \! ren_prev $end
$var integer 32 ]! i [31:0] $end
$upscope $end
$upscope $end
$scope module slave3 $end
$var wire 1 ^! clk $end
$var wire 1 _! rstn $end
$var wire 1 N swdata $end
$var wire 1 M srdata $end
$var wire 1 O smode $end
$var wire 1 P mvalid $end
$var wire 1 T split_grant $end
$var wire 1 Q svalid $end
$var wire 1 R sready $end
$var wire 1 S ssplit $end
$var wire 8 `! smemrdata [7:0] $end
$var wire 1 a! smemwen $end
$var wire 1 b! smemren $end
$var wire 12 c! smemaddr [11:0] $end
$var wire 8 d! smemwdata [7:0] $end
$var wire 1 e! rvalid $end
$scope module sp $end
$var wire 1 ^! clk $end
$var wire 1 _! rstn $end
$var wire 8 `! smemrdata [7:0] $end
$var wire 1 e! rvalid $end
$var reg 1 f! smemwen $end
$var reg 1 g! smemren $end
$var reg 12 h! smemaddr [11:0] $end
$var reg 8 i! smemwdata [7:0] $end
$var wire 1 N swdata $end
$var reg 1 j! srdata $end
$var wire 1 O smode $end
$var wire 1 P mvalid $end
$var wire 1 T split_grant $end
$var reg 1 k! svalid $end
$var wire 1 R sready $end
$var wire 1 S ssplit $end
$var reg 8 l! wdata [7:0] $end
$var reg 12 m! addr [11:0] $end
$var wire 8 n! rdata [7:0] $end
$var reg 1 o! mode $end
$var reg 8 p! counter [7:0] $end
$var reg 4 q! rcounter [3:0] $end
$var reg 3 r! state [2:0] $end
$var reg 3 s! next_state [2:0] $end
$upscope $end
$scope module sm $end
$var wire 1 ^! clk $end
$var wire 1 _! rstn $end
$var wire 1 a! wen $end
$var wire 1 b! ren $end
$var wire 12 c! addr [11:0] $end
$var wire 8 d! wdata [7:0] $end
$var reg 8 t! rdata [7:0] $end
$var reg 1 u! rvalid $end
$var reg 1 v! ren_prev $end
$var integer 32 w! i [31:0] $end
$upscope $end
$upscope $end
$scope module bus $end
$var wire 1 x! clk $end
$var wire 1 y! rstn $end
$var wire 1 / m1_rdata $end
$var wire 1 0 m1_wdata $end
$var wire 1 1 m1_mode $end
$var wire 1 2 m1_mvalid $end
$var wire 1 3 m1_svalid $end
$var wire 1 4 m1_breq $end
$var wire 1 5 m1_bgrant $end
$var wire 1 6 m1_ack $end
$var wire 1 7 m1_split $end
$var wire 1 8 m2_rdata $end
$var wire 1 9 m2_wdata $end
$var wire 1 : m2_mode $end
$var wire 1 ; m2_mvalid $end
$var wire 1 < m2_svalid $end
$var wire 1 = m2_breq $end
$var wire 1 > m2_bgrant $end
$var wire 1 ? m2_ack $end
$var wire 1 @ m2_split $end
$var wire 1 A s1_rdata $end
$var wire 1 B s1_wdata $end
$var wire 1 C s1_mode $end
$var wire 1 D s1_mvalid $end
$var wire 1 E s1_svalid $end
$var wire 1 F s1_ready $end
$var wire 1 G s2_rdata $end
$var wire 1 H s2_wdata $end
$var wire 1 I s2_mode $end
$var wire 1 J s2_mvalid $end
$var wire 1 K s2_svalid $end
$var wire 1 L s2_ready $end
$var wire 1 M s3_rdata $end
$var wire 1 N s3_wdata $end
$var wire 1 O s3_mode $end
$var wire 1 P s3_mvalid $end
$var wire 1 Q s3_svalid $end
$var wire 1 R s3_ready $end
$var wire 1 S s3_split $end
$var wire 1 T split_grant $end
$var wire 1 z! m_wdata $end
$var wire 1 {! m_mode $end
$var wire 1 |! m_mvalid $end
$var wire 1 }! m_select $end
$var wire 2 ~! s_select [1:0] $end
$var wire 1 !" m_ack $end
$var wire 1 "" s_rdata $end
$var wire 1 #" s_svalid $end
$var wire 1 $" s_split $end
$scope module bus_arbiter $end
$var wire 1 x! clk $end
$var wire 1 y! rstn $end
$var wire 1 4 breq1 $end
$var wire 1 = breq2 $end
$var wire 1 F sready1 $end
$var wire 1 L sready2 $end
$var wire 1 R sreadysp $end
$var wire 1 $" ssplit $end
$var wire 1 5 bgrant1 $end
$var wire 1 > bgrant2 $end
$var wire 1 }! msel $end
$var reg 1 %" msplit1 $end
$var reg 1 &" msplit2 $end
$var reg 1 '" split_grant $end
$var wire 1 (" sready $end
$var wire 1 )" sready_nsplit $end
$var reg 2 *" split_owner [1:0] $end
$var reg 3 +" state [2:0] $end
$var reg 3 ," next_state [2:0] $end
$upscope $end
$scope module decoder $end
$var wire 1 x! clk $end
$var wire 1 y! rstn $end
$var wire 1 z! mwdata $end
$var wire 1 |! mvalid $end
$var wire 1 $" ssplit $end
$var wire 1 T split_grant $end
$var wire 1 F sready1 $end
$var wire 1 L sready2 $end
$var wire 1 R sready3 $end
$var wire 1 D mvalid1 $end
$var wire 1 J mvalid2 $end
$var wire 1 P mvalid3 $end
$var reg 2 -" ssel [1:0] $end
$var wire 1 !" ack $end
$var reg 4 ." slave_addr [3:0] $end
$var reg 1 /" slave_en $end
$var wire 1 0" mvalid_out $end
$var wire 1 1" slave_addr_valid $end
$var wire 3 2" sready [2:0] $end
$var reg 4 3" counter [3:0] $end
$var reg 4 4" split_slave_addr [3:0] $end
$var reg 2 5" state [1:0] $end
$var reg 2 6" next_state [1:0] $end
$scope module mvalid_decoder $end
$var wire 2 -" sel [1:0] $end
$var wire 1 0" en $end
$var wire 1 D out1 $end
$var wire 1 J out2 $end
$var wire 1 P out3 $end
$upscope $end
$upscope $end
$scope module wdata_mux $end
$var wire 1 0 in0 [0:0] $end
$var wire 1 9 in1 [0:0] $end
$var wire 1 }! sel $end
$var wire 1 z! out [0:0] $end
$upscope $end
$scope module mctrl_mux $end
$var wire 2 7" in0 [1:0] $end
$var wire 2 8" in1 [1:0] $end
$var wire 1 }! sel $end
$var wire 2 9" out [1:0] $end
$upscope $end
$scope module rdata_mux $end
$var wire 1 A in0 [0:0] $end
$var wire 1 G in1 [0:0] $end
$var wire 1 M in2 [0:0] $end
$var wire 2 ~! sel [1:0] $end
$var reg 1 :" out [0:0] $end
$upscope $end
$scope module rctrl_mux $end
$var wire 1 E in0 [0:0] $end
$var wire 1 K in1 [0:0] $end
$var wire 1 Q in2 [0:0] $end
$var wire 2 ~! sel [1:0] $end
$var reg 1 ;" out [0:0] $end
$upscope $end
$upscope $end
$scope task random_delay $end
$var integer 32 <" delay [31:0] $end
$upscope $end
$upscope $end
$enddefinitions $end
#0
$dumpvars
0!
bx !!
x!"
0"
bx "!
x""
b0 #
bx #!
x#"
bx $
bx $!
x$"
b0 %
b0 %!
x%"
0&
0&!
x&"
x'
0'!
x'"
0(
0(!
x("
b0 )
x)!
x)"
bx *
bx *!
bx *"
b0 +
x+!
bx +"
0,
x,!
bx ,"
x-
bx -!
bx -"
0.
bx .!
bx ."
x/
x/!
x/"
x0
x0!
x0"
x1
x1!
x1"
x2
bx 2!
bx 2"
x3
bx 3!
bx 3"
x4
x4!
bx 4"
x5
x5!
bx 5"
x6
bx 6!
bx 6"
x7
bx 7!
bx 7"
x8
bx 8!
bx 8"
x9
x9!
bx 9"
x:
bx :!
x:"
x;
bx ;!
x;"
x<
bx <!
bx <"
x=
b0 =!
x>
bx >!
x?
x?!
x@
x@!
xA
b100000000000 A!
xB
0B!
xC
0C!
xD
0D!
xE
xE!
xF
bx F!
xG
xG!
xH
xH!
xI
bx I!
xJ
bx J!
xK
xK!
xL
xL!
xM
xM!
xN
bx N!
xO
bx O!
xP
xP!
xQ
xQ!
xR
bx R!
xS
bx S!
xT
bx T!
bx U
xU!
bx V
bx V!
bx W
bx W!
bx X
bx X!
bx Y
b0 Y!
bx Z
bx Z!
bx [
x[!
bx \
x\!
bx ]
b1000000000000 ]!
bx ^
0^!
x_
0_!
x`
bx `!
bx a
xa!
bx b
xb!
xc
bx c!
0d
bx d!
0e
xe!
b0 f
xf!
b0 g
xg!
0h
bx h!
0i
bx i!
xj
xj!
xk
xk!
bx l
bx l!
bx m
bx m!
xn
bx n!
bx o
xo!
bx p
bx p!
bx q
bx q!
bx r
bx r!
b0 s
bx s!
0t
bx t!
0u
xu!
b0 v
xv!
b0 w
b1000000000000 w!
0x
0x!
0y
0y!
xz
xz!
x{
x{!
bx |
x|!
bx }
x}!
x~
bx ~!
$end
#5000
1!
b0 !!
0!"
b0 "!
0""
b0 #!
0#"
b0 $
b0 $!
0$"
0%"
1&!
0&"
1'
0'"
1("
0)!
1)"
b0 *
b0 *!
b0 *"
0+!
b0 +"
0,!
b0 ,"
1-
b0 -!
b0 -"
b0 .!
b0 ."
0/
0/!
0/"
00
00!
00"
01
01!
11"
02
b0 2!
b111 2"
03
b0 3!
b0 3"
04
04!
b0 4"
05
05!
b0 5"
06
b0 6!
b0 6"
07
b0 7!
b0 7"
08
b0 8!
b0 8"
09
09!
b0 9"
0:
b0 :!
0:"
0;
b0 ;!
0;"
0<
b0 <!
0=
0>
b0 >!
0?
0?!
0@
0@!
0A
0B
1B!
0C
0D
0E
0E!
1F
b0 F!
0G
0G!
0H
0H!
0I
b0 I!
0J
b0 J!
0K
0K!
1L
0L!
0M
0M!
0N
b0 N!
0O
b0 O!
0P
0P!
0Q
0Q!
1R
b0 R!
0S
b0 S!
0T
b0 T!
0U!
b0 V!
b0 W!
b0 X!
b0 Z!
0[!
0\!
1^!
b0 `!
0a!
0b!
1c
b0 c!
1d
b0 d!
0e!
0f!
0g!
b0 h!
b0 i!
0j
0j!
0k
0k!
b0 l
b0 l!
b0 m
b0 m!
0n
b0 n!
b0 o
0o!
b0 p
b0 p!
b0 q
b0 q!
b0 r
b0 r!
b0 s!
1t
b0 t!
0u!
0v!
1x!
0z
0z!
0{
0{!
b0 |
0|!
b0 }
0}!
0~
b0 ~!
#10000
0!
0&!
0B!
0^!
0d
0t
0x!
#15000
1!
1&!
1B!
1^!
1d
1t
1x!
#20000
0!
0&!
0B!
0^!
0d
0t
0x!
#25000
1!
1"
1&!
1'!
1B!
1C!
1^!
1_!
1d
1e
1t
1u
1x!
1y!
#30000
0!
0&!
0B!
0^!
0d
0t
0x!
#35000
1!
1&!
1B!
1^!
1d
1t
1x!
#40000
0!
0&!
0B!
0^!
0d
0t
0x!
#45000
1!
1&!
1B!
b0 U
b11011011001001 V
b11000011001 W
b10011011 Y
b1110110 Z
b11 ]
b0 ^
1^!
1d
1t
1x!
#50000
0!
0&!
0B!
0^!
0d
0t
0x!
#55000
1!
b10011011 #
b11011011001001 %
1&
1&!
1(
11
b10 7"
b10 9"
b100 <"
1B!
1C
1I
1O
1^!
1d
b10011011 f
b11011011001001 g
1h
1i
b10011011 l
b11011011001001 m
1n
b100 s
1t
1x!
1{!
0|!
#60000
0!
0&!
0B!
0^!
0d
0t
0x!
#65000
1!
1&!
0'
b1 ,"
14
1B!
1^!
1d
b100 r
1t
1x!
#70000
0!
0&!
0B!
0^!
0d
0t
0x!
#75000
1!
1&!
b1 +"
15
0>
1B!
1^!
1d
b101 s
1t
1x!
0}!
#80000
0!
0&!
0B!
0^!
0d
0t
0x!
#85000
1!
1&!
0'
14
1B!
1^!
1d
b101 r
1t
1x!
#90000
0!
0&!
0B!
0^!
0d
0t
0x!
#95000
1!
1&!
10
00"
12
b1 6"
b11 7"
b11 9"
1B
1B!
1H
1N
1^!
1d
1j
1k
b1 p
1t
1x!
1z!
1{!
1|!
#100000
0!
0&!
0B!
0^!
0d
0t
0x!
#105000
1!
0!"
b100 %!
1&!
b1110110 )
b11000011001 +
1,
1.
b1 ."
11"
b1 3"
b1 5"
b10 8"
1:
1B!
1^!
1d
b10 p
1t
b1110110 v
b11000011001 w
1x
1x!
1y
1{!
b1110110 |
1|!
b11000011001 }
1~
#110000
0!
0&!
0B!
0^!
0d
0t
0x!
#115000
1!
0!"
b100 $!
b100 %!
0&
1&!
0,
0-
b11 ."
00
01"
b10 3"
1=
0B
1B!
0H
0N
1^!
1d
0h
0j
b11 p
b110 s
1t
0x
1x!
0z!
#120000
0!
0&!
0B!
0^!
0d
0t
0x!
#125000
1!
1&!
0'
b11 3"
14
b10 6"
1B!
1^!
1d
b0 p
b110 r
1t
1x!
#130000
0!
0&!
0B!
0^!
0d
0t
0x!
#135000
1!
0!"
1&!
00"
02
b0 3"
b10 5"
b0 6"
b10 7"
b10 9"
1B!
1^!
1d
0k
b1 q
1t
1x!
1{!
0|!
#140000
0!
0&!
0B!
0^!
0d
0t
0x!
#145000
1!
0!"
1&!
b11 -"
1/"
00"
b0 5"
0:"
0;"
1B!
0D
0J
0P
1^!
1d
b10 q
1t
1x!
b11 ~!
#150000
0!
0&!
0B!
0^!
0d
0t
0x!
#155000
1!
1&!
0/"
00"
1B!
1^!
1d
b11 q
1t
1x!
#160000
0!
0&!
0B!
0^!
0d
0t
0x!
#165000
1!
1&!
1B!
1^!
1d
b100 q
1t
1x!
#170000
0!
0&!
0B!
0^!
0d
0t
0x!
#175000
1!
1&!
1B!
1^!
1d
b101 q
b0 s
1t
1x!
#180000
0!
0&!
0B!
0^!
0d
0t
0x!
#185000
1!
1&!
1'
b0 ,"
04
1B!
1^!
1d
b110 q
b0 r
1t
1x!
#190000
0!
0&!
0B!
0^!
0d
0t
0x!
#195000
1!
1&!
b0 +"
b10 ,"
05
0>
1B!
1^!
1d
b0 q
1t
1x!
0}!
#200000
0!
0&!
0B!
0^!
0d
0t
0x!
#205000
1!
b101 %!
1&!
b10 +"
05
1>
1B!
1^!
1d
1t
1x!
0z!
1{!
0|!
1}!
#210000
0!
0&!
0B!
0^!
0d
0t
0x!
#215000
1!
b101 $!
1&!
0-
1=
1B!
1^!
1d
1t
1x!
#220000
0!
0&!
0B!
0^!
0d
0t
0x!
#225000
1!
b1 "!
1&!
00"
b1 6"
b11 8"
b11 9"
1;
1B!
1^!
1d
1t
1x!
1{
1{!
1|!
#230000
0!
0&!
0B!
0^!
0d
0t
0x!
#235000
1!
0!"
b10 "!
1&!
b10 ."
11"
b1 3"
b1 5"
1B!
1^!
1d
1t
1x!
#240000
0!
0&!
0B!
0^!
0d
0t
0x!
#245000
1!
b11 "!
b110 %!
1&!
b0 ."
11"
b10 3"
1B!
1^!
1d
1t
1x!
#250000
0!
0&!
0B!
0^!
0d
0t
0x!
#255000
1!
b0 "!
b110 $!
1&!
0-
b11 3"
b10 6"
1=
1B!
1^!
1d
1t
1x!
#260000
0!
0&!
0B!
0^!
0d
0t
0x!
#265000
1!
1!"
b1 #!
b1 %!
1&!
00"
b0 3"
b10 5"
16
b10 6"
b10 8"
b10 9"
0;
1?
1B!
1^!
1d
1t
1x!
0{
1{!
0|!
#270000
0!
0&!
0B!
0^!
0d
0t
0x!
#275000
1!
b10 #!
b1 $!
1&!
0-
b0 -"
1/"
00"
0:"
0;"
1=
1B!
0D
0J
0P
1^!
1d
1t
1x!
b0 ~!
#280000
0!
0&!
0B!
0^!
0d
0t
0x!
#285000
1!
b1 "!
1&!
10"
b11 6"
b11 8"
19
b11 9"
1;
b1 =!
1B
1B!
1D
1H
0J
1N
0P
1^!
1d
1t
1x!
1z
1z!
1{
1{!
1|!
#290000
0!
0&!
0B!
0^!
0d
0t
0x!
#295000
1!
0!"
b10 "!
1&!
0("
0)"
01"
b110 2"
b11 5"
06
b11 6"
b1 7!
09
19!
b1 :!
b1 <!
0?
0B
1B!
0F
0H
0N
1^!
0c
1d
1t
1x!
0z
0z!
#300000
0!
0&!
0B!
0^!
0d
0t
0x!
#305000
1!
b11 "!
1&!
b10 :!
1B!
1^!
1d
1t
1x!
#310000
0!
0&!
0B!
0^!
0d
0t
0x!
#315000
1!
b100 "!
1&!
19
b11 :!
1B
1B!
1H
1N
1^!
1d
1t
1x!
1z
1z!
#320000
0!
0&!
0B!
0^!
0d
0t
0x!
#325000
1!
b101 "!
1&!
b1001 7!
b100 :!
1B!
1^!
1d
1t
1x!
#330000
0!
0&!
0B!
0^!
0d
0t
0x!
#335000
1!
b110 "!
1&!
b11001 7!
09
b101 :!
0B
1B!
0H
0N
1^!
1d
1t
1x!
0z
0z!
#340000
0!
0&!
0B!
0^!
0d
0t
0x!
#345000
1!
b111 "!
1&!
b110 :!
1B!
1^!
1d
1t
1x!
#350000
0!
0&!
0B!
0^!
0d
0t
0x!
#355000
1!
b1000 "!
1&!
b111 :!
1B!
1^!
1d
1t
1x!
#360000
0!
0&!
0B!
0^!
0d
0t
0x!
#365000
1!
b1001 "!
1&!
b1000 :!
1B!
1^!
1d
1t
1x!
#370000
0!
0&!
0B!
0^!
0d
0t
0x!
#375000
1!
b1010 "!
1&!
19
b1001 :!
1B
1B!
1H
1N
1^!
1d
1t
1x!
1z
1z!
#380000
0!
0&!
0B!
0^!
0d
0t
0x!
#385000
1!
b1011 "!
b11 %!
1&!
b1000011001 7!
b1010 :!
1B!
1^!
1d
1t
1x!
#390000
0!
0&!
0B!
0^!
0d
0t
0x!
#395000
1!
b0 "!
b11 $!
1&!
0-
b11000011001 7!
09
b1011 :!
1=
b11 =!
0B
1B!
0H
0N
1^!
1d
1t
1x!
0z
0z!
#400000
0!
0&!
0B!
0^!
0d
0t
0x!
#405000
1!
b1 "!
1&!
b0 :!
b11 <!
1B!
0F
1^!
1d
1t
1x!
#410000
0!
0&!
0B!
0^!
0d
0t
0x!
#415000
1!
b10 "!
1&!
19
b1 :!
1B
1B!
1H
1N
1^!
1d
1t
1x!
1z
1z!
#420000
0!
0&!
0B!
0^!
0d
0t
0x!
#425000
1!
b11 "!
1&!
b10 6!
b10 :!
1B!
1^!
1d
1t
1x!
#430000
0!
0&!
0B!
0^!
0d
0t
0x!
#435000
1!
b100 "!
1&!
b110 6!
09
b11 :!
0B
1B!
0H
0N
1^!
1d
1t
1x!
0z
0z!
#440000
0!
0&!
0B!
0^!
0d
0t
0x!
#445000
1!
b101 "!
1&!
19
b100 :!
1B
1B!
1H
1N
1^!
1d
1t
1x!
1z
1z!
#450000
0!
0&!
0B!
0^!
0d
0t
0x!
#455000
1!
b110 "!
1&!
b10110 6!
b101 :!
1B!
1^!
1d
1t
1x!
#460000
0!
0&!
0B!
0^!
0d
0t
0x!
#465000
1!
b111 "!
b0 %!
1&!
b110110 6!
b110 :!
1B!
1^!
1d
1t
1x!
#470000
0!
0&!
0B!
0^!
0d
0t
0x!
#475000
1!
b0 "!
b0 $!
1&!
b0 ,"
1-
b1110110 6!
09
b111 :!
0=
b101 =!
0B
1B!
0H
0N
1^!
1d
1t
1x!
0z
0z!
#480000
0!
0&!
0B!
0^!
0d
0t
0x!
#485000
1!
b0 #!
1&!
1+!
b0 +"
10!
00"
05
b10 8"
b10 9"
b0 :!
0;
b101 <!
b0 =!
0>
1B!
0D
0F
0J
0P
1^!
1d
1t
1x!
0z!
0{
1{!
0|!
0}!
#490000
0!
0&!
0B!
0^!
0d
0t
0x!
#495000
1!
0!"
1&!
1("
1)"
b11000011001 -!
b1110110 .!
11"
b11000011001 2!
b111 2"
b1110110 3!
b0 6"
b0 <!
1B!
1F
1^!
1c
1d
1t
1x!
#500000
0!
0&!
0B!
0^!
0d
0t
0x!
#505000
1!
0!"
1&!
0+!
00!
b0 5"
1B!
1^!
1d
1t
1x!
#510000
0!
0&!
0B!
0^!
0d
0t
0x!
#515000
1!
1&!
0/"
00"
1B!
b1110110 \
1^!
1d
1t
1x!
#520000
0!
0&!
0B!
0^!
0d
0t
0x!
#525000
1!
b100 %!
1&
1&!
0(
1,
0.
01
b0 7"
b0 8"
b0 9"
0:
1B!
0C
0I
0O
1^!
b0 a
b0 b
1d
1h
0i
0n
b100 s
1t
1x
1x!
0y
0{!
0|!
0~
#530000
0!
0&!
0B!
0^!
0d
0t
0x!
#535000
1!
b100 $!
b100 %!
0&
1&!
0'
0,
b1 ,"
0-
14
1=
1B!
1^!
1d
0h
b100 r
b100 s
1t
0x
1x!
#540000
0!
0&!
0B!
0^!
0d
0t
0x!
#545000
1!
1&!
b1 +"
15
0>
1B!
1^!
1d
b101 s
1t
1x!
0}!
#550000
0!
0&!
0B!
0^!
0d
0t
0x!
#555000
1!
1&!
0'
14
1B!
1^!
1d
b101 r
1t
1x!
#560000
0!
0&!
0B!
0^!
0d
0t
0x!
#565000
1!
1&!
10
00"
12
b1 6"
b1 7"
b1 9"
1B
1B!
1H
1N
1^!
1d
1j
1k
b1 p
1t
1x!
1z!
0{!
1|!
#570000
0!
0&!
0B!
0^!
0d
0t
0x!
#575000
1!
0!"
1&!
b1 ."
11"
b1 3"
b1 5"
1B!
1^!
1d
b10 p
1t
1x!
#580000
0!
0&!
0B!
0^!
0d
0t
0x!
#585000
1!
0!"
1&!
b11 ."
00
01"
b10 3"
0B
1B!
0H
0N
1^!
1d
0j
b11 p
b110 s
1t
1x!
0z!
#590000
0!
0&!
0B!
0^!
0d
0t
0x!
#595000
1!
1&!
0'
b11 3"
14
b10 6"
1B!
1^!
1d
b0 p
b110 r
1t
1x!
#600000
0!
0&!
0B!
0^!
0d
0t
0x!
#605000
1!
0!"
1&!
00"
02
b0 3"
b10 5"
b0 6"
b0 7"
b0 9"
1B!
1^!
1d
0k
b1 q
1t
1x!
0{!
0|!
#610000
0!
0&!
0B!
0^!
0d
0t
0x!
#615000
1!
0!"
1&!
b11 -"
1/"
00"
b0 5"
0:"
0;"
1B!
0D
0J
0P
1^!
1d
b10 q
1t
1x!
b11 ~!
#620000
0!
0&!
0B!
0^!
0d
0t
0x!
#625000
1!
1&!
0/"
00"
1B!
1^!
1d
b11 q
1t
1x!
#630000
0!
0&!
0B!
0^!
0d
0t
0x!
#635000
1!
1&!
1B!
1^!
1d
b100 q
1t
1x!
#640000
0!
0&!
0B!
0^!
0d
0t
0x!
#645000
1!
1&!
1B!
1^!
1d
b101 q
b0 s
1t
1x!
#650000
0!
0&!
0B!
0^!
0d
0t
0x!
#655000
1!
1&!
1'
b0 ,"
04
1B!
1^!
1d
b110 q
b0 r
1t
1x!
#660000
0!
0&!
0B!
0^!
0d
0t
0x!
#665000
1!
1&!
b0 +"
b10 ,"
05
0>
1B!
1^!
1d
b0 q
1t
1x!
0}!
#670000
0!
0&!
0B!
0^!
0d
0t
0x!
#675000
1!
b101 %!
1&!
b10 +"
05
1>
1B!
1^!
1d
1t
1x!
0z!
0{!
0|!
1}!
#680000
0!
0&!
0B!
0^!
0d
0t
0x!
#685000
1!
b101 $!
1&!
0-
1=
1B!
1^!
1d
1t
1x!
